<?xml version="1.0" encoding="utf-8"?>
<!-- Generator: Adobe Illustrator 15.0.0, SVG Export Plug-In . SVG Version: 6.00 Build 0)  -->
<!DOCTYPE svg PUBLIC "-//W3C//DTD SVG 1.1//EN" "http://www.w3.org/Graphics/SVG/1.1/DTD/svg11.dtd">
<svg version="1.1" id="Calque_1" xmlns="http://www.w3.org/2000/svg" xmlns:xlink="http://www.w3.org/1999/xlink" x="0px" y="0px"
	 width="481.26px" height="270.333px" viewBox="0 0 481.26 270.333" enable-background="new 0 0 481.26 270.333"
	 xml:space="preserve">
<g>
	<g>
		<path fill="#E2E2E1" d="M343.35,37.837c0,2.2-1.799,4-4,4h-157.5c-2.2,0-4-1.8-4-4v-4c0-2.2,1.8-4,4-4h157.5c2.201,0,4,1.8,4,4
			V37.837z"/>
	</g>
	<g>
		<path fill="#E2E2E1" d="M343.35,52.736c0,2.2-1.799,4-4,4h-157.5c-2.2,0-4-1.8-4-4v-4c0-2.2,1.8-4,4-4h157.5c2.201,0,4,1.8,4,4
			V52.736z"/>
	</g>
	<g>
		<path fill="#E2E2E1" d="M343.35,67.637c0,2.2-1.799,4-4,4h-157.5c-2.2,0-4-1.8-4-4v-4c0-2.2,1.8-4,4-4h157.5c2.201,0,4,1.8,4,4
			V67.637z"/>
	</g>
	<g>
		<path fill="#E2E2E1" d="M343.35,82.537c0,2.2-1.799,4-4,4h-157.5c-2.2,0-4-1.8-4-4v-4c0-2.2,1.8-4,4-4h157.5c2.201,0,4,1.8,4,4
			V82.537z"/>
	</g>
	<g>
		<path fill="#E2E2E1" d="M343.35,97.438c0,2.2-1.799,4-4,4h-157.5c-2.2,0-4-1.8-4-4v-4c0-2.2,1.8-4,4-4h157.5c2.201,0,4,1.8,4,4
			V97.438z"/>
	</g>
	<g>
		<path fill="#E2E2E1" d="M343.35,112.337c0,2.2-1.799,4-4,4h-157.5c-2.2,0-4-1.8-4-4v-4c0-2.2,1.8-4,4-4h157.5c2.201,0,4,1.8,4,4
			V112.337z"/>
	</g>
</g>
<g>
	<path fill="none" stroke="#000000" stroke-miterlimit="10" d="M348.027,117.753c0,2.2-1.801,4-4,4h-166c-2.2,0-4-1.8-4-4V28.42
		c0-2.2,1.8-4,4-4h166c2.199,0,4,1.8,4,4V117.753z"/>
</g>
<g>
	<path d="M239.842,9.293h-1.635v5.666h-0.973V9.293h-1.148V8.854l1.148-0.352V8.145c0-1.578,0.689-2.367,2.068-2.367
		c0.34,0,0.738,0.068,1.195,0.205l-0.252,0.779c-0.375-0.121-0.695-0.182-0.961-0.182c-0.367,0-0.639,0.122-0.814,0.366
		s-0.264,0.636-0.264,1.175v0.416h1.635V9.293z"/>
	<path d="M246.557,11.742c0,1.047-0.264,1.864-0.791,2.452s-1.256,0.882-2.186,0.882c-0.574,0-1.084-0.135-1.529-0.404
		s-0.789-0.656-1.031-1.16s-0.363-1.094-0.363-1.77c0-1.047,0.262-1.862,0.785-2.446s1.25-0.876,2.18-0.876
		c0.898,0,1.612,0.299,2.142,0.896S246.557,10.723,246.557,11.742z M241.665,11.742c0,0.82,0.164,1.445,0.492,1.875
		s0.811,0.645,1.447,0.645s1.12-0.214,1.45-0.642s0.495-1.054,0.495-1.878c0-0.816-0.165-1.437-0.495-1.86s-0.817-0.636-1.462-0.636
		c-0.637,0-1.117,0.209-1.441,0.627S241.665,10.914,241.665,11.742z"/>
	<path d="M252.657,14.959v-4.154c0-0.523-0.119-0.914-0.357-1.172s-0.611-0.387-1.119-0.387c-0.672,0-1.164,0.182-1.477,0.545
		s-0.469,0.963-0.469,1.799v3.369h-0.973V8.537h0.791l0.158,0.879h0.047c0.199-0.316,0.479-0.562,0.838-0.735
		s0.76-0.261,1.201-0.261c0.773,0,1.355,0.187,1.746,0.56s0.586,0.97,0.586,1.79v4.189H252.657z"/>
	<path d="M258.194,15.076c-0.93,0-1.649-0.286-2.159-0.858s-0.765-1.382-0.765-2.429c0-1.074,0.259-1.904,0.776-2.49
		s1.255-0.879,2.212-0.879c0.309,0,0.617,0.033,0.926,0.1s0.551,0.145,0.727,0.234l-0.299,0.826
		c-0.215-0.086-0.449-0.157-0.703-0.214s-0.479-0.085-0.674-0.085c-1.305,0-1.957,0.832-1.957,2.496
		c0,0.789,0.159,1.395,0.478,1.816s0.79,0.633,1.415,0.633c0.535,0,1.084-0.115,1.646-0.346v0.861
		C259.387,14.965,258.846,15.076,258.194,15.076z"/>
	<path d="M263.415,14.273c0.172,0,0.338-0.013,0.498-0.038s0.287-0.052,0.381-0.079V14.9c-0.105,0.051-0.261,0.093-0.466,0.126
		s-0.39,0.05-0.554,0.05c-1.242,0-1.863-0.654-1.863-1.963v-3.82h-0.92V8.824l0.92-0.404l0.41-1.371h0.562v1.488h1.863v0.756h-1.863
		v3.779c0,0.387,0.092,0.684,0.275,0.891S263.094,14.273,263.415,14.273z"/>
	<path d="M265.495,6.797c0-0.223,0.055-0.386,0.164-0.489s0.246-0.155,0.41-0.155c0.156,0,0.291,0.053,0.404,0.158
		s0.17,0.268,0.17,0.486s-0.057,0.382-0.17,0.489s-0.248,0.161-0.404,0.161c-0.164,0-0.301-0.054-0.41-0.161
		S265.495,7.016,265.495,6.797z M266.549,14.959h-0.973V8.537h0.973V14.959z"/>
	<path d="M274.155,11.742c0,1.047-0.264,1.864-0.791,2.452s-1.256,0.882-2.186,0.882c-0.574,0-1.084-0.135-1.529-0.404
		s-0.789-0.656-1.031-1.16s-0.363-1.094-0.363-1.77c0-1.047,0.262-1.862,0.785-2.446s1.25-0.876,2.18-0.876
		c0.898,0,1.612,0.299,2.142,0.896S274.155,10.723,274.155,11.742z M269.262,11.742c0,0.82,0.164,1.445,0.492,1.875
		s0.811,0.645,1.447,0.645s1.12-0.214,1.45-0.642s0.495-1.054,0.495-1.878c0-0.816-0.165-1.437-0.495-1.86s-0.817-0.636-1.462-0.636
		c-0.637,0-1.117,0.209-1.441,0.627S269.262,10.914,269.262,11.742z"/>
	<path d="M280.254,14.959v-4.154c0-0.523-0.119-0.914-0.357-1.172s-0.611-0.387-1.119-0.387c-0.672,0-1.164,0.182-1.477,0.545
		s-0.469,0.963-0.469,1.799v3.369h-0.973V8.537h0.791l0.158,0.879h0.047c0.199-0.316,0.479-0.562,0.838-0.735
		s0.76-0.261,1.201-0.261c0.773,0,1.355,0.187,1.746,0.56s0.586,0.97,0.586,1.79v4.189H280.254z"/>
</g>
<g>
	<path d="M64.119,50.736l-2.438-6.422h1.043l1.383,3.809c0.312,0.891,0.496,1.469,0.551,1.734h0.047
		c0.043-0.207,0.179-0.636,0.407-1.286s0.741-2.069,1.538-4.257h1.043l-2.438,6.422H64.119z"/>
	<path d="M72.673,50.736l-0.193-0.914h-0.047c-0.32,0.402-0.64,0.675-0.958,0.817s-0.716,0.214-1.192,0.214
		c-0.637,0-1.136-0.164-1.497-0.492s-0.542-0.795-0.542-1.4c0-1.297,1.037-1.977,3.111-2.039l1.09-0.035v-0.398
		c0-0.504-0.108-0.876-0.325-1.116s-0.563-0.36-1.04-0.36c-0.535,0-1.141,0.164-1.816,0.492l-0.299-0.744
		c0.316-0.172,0.663-0.307,1.04-0.404s0.755-0.146,1.134-0.146c0.766,0,1.333,0.17,1.702,0.51s0.554,0.885,0.554,1.635v4.383H72.673
		z M70.476,50.051c0.605,0,1.081-0.166,1.427-0.498s0.519-0.797,0.519-1.395v-0.58l-0.973,0.041
		c-0.773,0.027-1.331,0.147-1.673,0.36s-0.513,0.544-0.513,0.993c0,0.352,0.106,0.619,0.319,0.803S70.093,50.051,70.476,50.051z"/>
	<path d="M76.371,50.736h-0.973v-9.117h0.973V50.736z"/>
	<path d="M81.146,50.854c-0.949,0-1.698-0.289-2.247-0.867s-0.823-1.381-0.823-2.408c0-1.035,0.255-1.857,0.765-2.467
		s1.194-0.914,2.054-0.914c0.805,0,1.441,0.265,1.91,0.794s0.703,1.228,0.703,2.095v0.615h-4.424c0.02,0.754,0.21,1.326,0.571,1.717
		s0.87,0.586,1.526,0.586c0.691,0,1.375-0.145,2.051-0.434v0.867c-0.344,0.148-0.669,0.255-0.976,0.319S81.58,50.854,81.146,50.854z
		 M80.882,45.012c-0.516,0-0.927,0.168-1.233,0.504s-0.487,0.801-0.542,1.395h3.357c0-0.613-0.137-1.083-0.41-1.409
		S81.39,45.012,80.882,45.012z"/>
	<path d="M86.08,44.314v4.166c0,0.523,0.119,0.914,0.357,1.172s0.611,0.387,1.119,0.387c0.672,0,1.163-0.184,1.474-0.551
		s0.466-0.967,0.466-1.799v-3.375h0.973v6.422h-0.803l-0.141-0.861h-0.053c-0.199,0.316-0.476,0.559-0.829,0.727
		s-0.757,0.252-1.21,0.252c-0.781,0-1.366-0.186-1.755-0.557s-0.583-0.965-0.583-1.781v-4.201H86.08z"/>
	<path d="M95.46,44.197c0.285,0,0.541,0.023,0.768,0.07l-0.135,0.902c-0.266-0.059-0.5-0.088-0.703-0.088
		c-0.52,0-0.964,0.211-1.333,0.633s-0.554,0.947-0.554,1.576v3.445h-0.973v-6.422h0.803l0.111,1.189h0.047
		c0.238-0.418,0.525-0.74,0.861-0.967S95.058,44.197,95.46,44.197z"/>
	<path d="M101.572,48.984c0,0.598-0.223,1.059-0.668,1.383s-1.07,0.486-1.875,0.486c-0.852,0-1.516-0.135-1.992-0.404v-0.902
		c0.309,0.156,0.64,0.279,0.993,0.369s0.694,0.135,1.022,0.135c0.508,0,0.898-0.081,1.172-0.243s0.41-0.409,0.41-0.741
		c0-0.25-0.108-0.464-0.325-0.642s-0.64-0.388-1.269-0.63c-0.598-0.223-1.022-0.417-1.274-0.583s-0.439-0.354-0.562-0.565
		s-0.185-0.463-0.185-0.756c0-0.523,0.213-0.937,0.639-1.239s1.01-0.454,1.752-0.454c0.691,0,1.367,0.141,2.027,0.422l-0.346,0.791
		c-0.645-0.266-1.229-0.398-1.752-0.398c-0.461,0-0.809,0.072-1.043,0.217s-0.352,0.344-0.352,0.598
		c0,0.172,0.044,0.318,0.132,0.439s0.229,0.236,0.425,0.346s0.57,0.268,1.125,0.475c0.762,0.277,1.276,0.557,1.544,0.838
		S101.572,48.559,101.572,48.984z"/>
	<path d="M108.984,50.854c-0.949,0-1.698-0.289-2.247-0.867s-0.823-1.381-0.823-2.408c0-1.035,0.255-1.857,0.765-2.467
		s1.194-0.914,2.054-0.914c0.805,0,1.441,0.265,1.91,0.794s0.703,1.228,0.703,2.095v0.615h-4.424c0.02,0.754,0.21,1.326,0.571,1.717
		s0.87,0.586,1.526,0.586c0.691,0,1.375-0.145,2.051-0.434v0.867c-0.344,0.148-0.669,0.255-0.976,0.319
		S109.417,50.854,108.984,50.854z M108.72,45.012c-0.516,0-0.927,0.168-1.233,0.504s-0.487,0.801-0.542,1.395h3.357
		c0-0.613-0.137-1.083-0.41-1.409S109.228,45.012,108.72,45.012z"/>
	<path d="M117.398,50.736v-4.154c0-0.523-0.119-0.914-0.357-1.172s-0.611-0.387-1.119-0.387c-0.672,0-1.164,0.182-1.477,0.545
		s-0.469,0.963-0.469,1.799v3.369h-0.973v-6.422h0.791l0.158,0.879H114c0.199-0.316,0.479-0.562,0.838-0.735s0.76-0.261,1.201-0.261
		c0.773,0,1.355,0.187,1.746,0.56s0.586,0.97,0.586,1.79v4.189H117.398z"/>
	<path d="M126.199,50.854c-0.949,0-1.698-0.289-2.247-0.867s-0.823-1.381-0.823-2.408c0-1.035,0.255-1.857,0.765-2.467
		s1.194-0.914,2.054-0.914c0.805,0,1.441,0.265,1.91,0.794s0.703,1.228,0.703,2.095v0.615h-4.424c0.02,0.754,0.21,1.326,0.571,1.717
		s0.87,0.586,1.526,0.586c0.691,0,1.375-0.145,2.051-0.434v0.867c-0.344,0.148-0.669,0.255-0.976,0.319
		S126.632,50.854,126.199,50.854z M125.935,45.012c-0.516,0-0.927,0.168-1.233,0.504s-0.487,0.801-0.542,1.395h3.357
		c0-0.613-0.137-1.083-0.41-1.409S126.443,45.012,125.935,45.012z"/>
	<path d="M134.613,50.736v-4.154c0-0.523-0.119-0.914-0.357-1.172s-0.611-0.387-1.119-0.387c-0.672,0-1.164,0.182-1.477,0.545
		s-0.469,0.963-0.469,1.799v3.369h-0.973v-6.422h0.791l0.158,0.879h0.047c0.199-0.316,0.479-0.562,0.838-0.735
		s0.76-0.261,1.201-0.261c0.773,0,1.355,0.187,1.746,0.56s0.586,0.97,0.586,1.79v4.189H134.613z"/>
	<path d="M139.658,50.051c0.172,0,0.338-0.013,0.498-0.038s0.287-0.052,0.381-0.079v0.744c-0.105,0.051-0.261,0.093-0.466,0.126
		s-0.39,0.05-0.554,0.05c-1.242,0-1.863-0.654-1.863-1.963v-3.82h-0.92v-0.469l0.92-0.404l0.41-1.371h0.562v1.488h1.863v0.756
		h-1.863v3.779c0,0.387,0.092,0.684,0.275,0.891S139.337,50.051,139.658,50.051z"/>
	<path d="M144.75,44.197c0.285,0,0.541,0.023,0.768,0.07l-0.135,0.902c-0.266-0.059-0.5-0.088-0.703-0.088
		c-0.52,0-0.964,0.211-1.333,0.633s-0.554,0.947-0.554,1.576v3.445h-0.973v-6.422h0.803l0.111,1.189h0.047
		c0.238-0.418,0.525-0.74,0.861-0.967S144.347,44.197,144.75,44.197z"/>
	<path d="M149.431,50.854c-0.949,0-1.698-0.289-2.247-0.867s-0.823-1.381-0.823-2.408c0-1.035,0.255-1.857,0.765-2.467
		s1.194-0.914,2.054-0.914c0.805,0,1.441,0.265,1.91,0.794s0.703,1.228,0.703,2.095v0.615h-4.424c0.02,0.754,0.21,1.326,0.571,1.717
		s0.87,0.586,1.526,0.586c0.691,0,1.375-0.145,2.051-0.434v0.867c-0.344,0.148-0.669,0.255-0.976,0.319
		S149.865,50.854,149.431,50.854z M149.167,45.012c-0.516,0-0.927,0.168-1.233,0.504s-0.487,0.801-0.542,1.395h3.357
		c0-0.613-0.137-1.083-0.41-1.409S149.675,45.012,149.167,45.012z M148.447,43.318c0.188-0.242,0.39-0.535,0.606-0.879
		s0.388-0.643,0.513-0.896h1.184v0.123c-0.172,0.254-0.428,0.566-0.768,0.938s-0.635,0.658-0.885,0.861h-0.65V43.318z"/>
	<path d="M156.164,50.854c-0.949,0-1.698-0.289-2.247-0.867s-0.823-1.381-0.823-2.408c0-1.035,0.255-1.857,0.765-2.467
		s1.194-0.914,2.054-0.914c0.805,0,1.441,0.265,1.91,0.794s0.703,1.228,0.703,2.095v0.615h-4.424c0.02,0.754,0.21,1.326,0.571,1.717
		s0.87,0.586,1.526,0.586c0.691,0,1.375-0.145,2.051-0.434v0.867c-0.344,0.148-0.669,0.255-0.976,0.319
		S156.597,50.854,156.164,50.854z M155.9,45.012c-0.516,0-0.927,0.168-1.233,0.504s-0.487,0.801-0.542,1.395h3.357
		c0-0.613-0.137-1.083-0.41-1.409S156.408,45.012,155.9,45.012z"/>
	<path d="M76.98,61.849c0-1.035,0.151-2.004,0.454-2.906s0.739-1.693,1.31-2.373h0.949c-0.562,0.754-0.985,1.582-1.269,2.484
		S78,60.884,78,61.837c0,0.938,0.145,1.854,0.434,2.748s0.705,1.711,1.248,2.449h-0.938c-0.574-0.664-1.012-1.439-1.312-2.326
		S76.98,62.869,76.98,61.849z"/>
	<path d="M85.031,65.136l-0.193-0.914h-0.047c-0.32,0.402-0.64,0.675-0.958,0.817s-0.716,0.214-1.192,0.214
		c-0.637,0-1.136-0.164-1.497-0.492s-0.542-0.795-0.542-1.4c0-1.297,1.037-1.977,3.111-2.039l1.09-0.035v-0.398
		c0-0.504-0.108-0.876-0.325-1.116s-0.563-0.36-1.04-0.36c-0.535,0-1.141,0.164-1.816,0.492l-0.299-0.744
		c0.316-0.172,0.663-0.307,1.04-0.404s0.755-0.146,1.134-0.146c0.766,0,1.333,0.17,1.702,0.51s0.554,0.885,0.554,1.635v4.383H85.031
		z M82.833,64.451c0.605,0,1.081-0.166,1.427-0.498s0.519-0.797,0.519-1.395v-0.58l-0.973,0.041
		c-0.773,0.027-1.331,0.147-1.673,0.36s-0.513,0.544-0.513,0.993c0,0.352,0.106,0.619,0.319,0.803S82.451,64.451,82.833,64.451z"/>
	<path d="M90.685,58.597c0.285,0,0.541,0.023,0.768,0.07l-0.135,0.902c-0.266-0.059-0.5-0.088-0.703-0.088
		c-0.52,0-0.964,0.211-1.333,0.633s-0.554,0.947-0.554,1.576v3.445h-0.973v-6.422h0.803l0.111,1.189h0.047
		c0.238-0.418,0.525-0.74,0.861-0.967S90.283,58.597,90.685,58.597z"/>
	<path d="M97.91,58.714v0.615L96.72,59.47c0.109,0.137,0.207,0.315,0.293,0.536s0.129,0.47,0.129,0.747
		c0,0.629-0.215,1.131-0.645,1.506s-1.02,0.562-1.77,0.562c-0.191,0-0.371-0.016-0.539-0.047c-0.414,0.219-0.621,0.494-0.621,0.826
		c0,0.176,0.072,0.306,0.217,0.39s0.393,0.126,0.744,0.126h1.137c0.695,0,1.229,0.146,1.603,0.439s0.56,0.719,0.56,1.277
		c0,0.711-0.285,1.253-0.855,1.626s-1.402,0.56-2.496,0.56c-0.84,0-1.487-0.156-1.942-0.469s-0.683-0.754-0.683-1.324
		c0-0.391,0.125-0.729,0.375-1.014s0.602-0.479,1.055-0.58c-0.164-0.074-0.302-0.189-0.413-0.346s-0.167-0.338-0.167-0.545
		c0-0.234,0.062-0.439,0.188-0.615s0.322-0.346,0.592-0.51c-0.332-0.137-0.603-0.369-0.812-0.697s-0.313-0.703-0.313-1.125
		c0-0.703,0.211-1.245,0.633-1.626s1.02-0.571,1.793-0.571c0.336,0,0.639,0.039,0.908,0.117H97.91z M92.789,66.214
		c0,0.348,0.146,0.611,0.439,0.791s0.713,0.27,1.26,0.27c0.816,0,1.421-0.122,1.813-0.366s0.589-0.575,0.589-0.993
		c0-0.348-0.107-0.589-0.322-0.724s-0.619-0.202-1.213-0.202h-1.166c-0.441,0-0.785,0.105-1.031,0.316S92.789,65.82,92.789,66.214z
		 M93.316,60.771c0,0.449,0.127,0.789,0.381,1.02s0.607,0.346,1.061,0.346c0.949,0,1.424-0.461,1.424-1.383
		c0-0.965-0.48-1.447-1.441-1.447c-0.457,0-0.809,0.123-1.055,0.369S93.316,60.287,93.316,60.771z"/>
	<path d="M100.142,58.714v4.166c0,0.523,0.119,0.914,0.357,1.172s0.611,0.387,1.119,0.387c0.672,0,1.163-0.184,1.474-0.551
		s0.466-0.967,0.466-1.799v-3.375h0.973v6.422h-0.803l-0.141-0.861h-0.053c-0.199,0.316-0.476,0.559-0.829,0.727
		s-0.757,0.252-1.21,0.252c-0.781,0-1.366-0.186-1.755-0.557s-0.583-0.965-0.583-1.781v-4.201H100.142z"/>
	<path d="M114.779,65.136v-4.178c0-0.512-0.109-0.896-0.328-1.151s-0.559-0.384-1.02-0.384c-0.605,0-1.053,0.174-1.342,0.521
		s-0.434,0.883-0.434,1.605v3.586h-0.973v-4.178c0-0.512-0.109-0.896-0.328-1.151s-0.561-0.384-1.025-0.384
		c-0.609,0-1.056,0.183-1.339,0.548s-0.425,0.964-0.425,1.796v3.369h-0.973v-6.422h0.791l0.158,0.879h0.047
		c0.184-0.312,0.442-0.557,0.776-0.732s0.708-0.264,1.122-0.264c1.004,0,1.66,0.363,1.969,1.09h0.047
		c0.191-0.336,0.469-0.602,0.832-0.797s0.777-0.293,1.242-0.293c0.727,0,1.271,0.187,1.632,0.56s0.542,0.97,0.542,1.79v4.189
		H114.779z"/>
	<path d="M120.468,65.253c-0.949,0-1.698-0.289-2.247-0.867s-0.823-1.381-0.823-2.408c0-1.035,0.255-1.857,0.765-2.467
		s1.194-0.914,2.054-0.914c0.805,0,1.441,0.265,1.91,0.794s0.703,1.228,0.703,2.095v0.615h-4.424c0.02,0.754,0.21,1.326,0.571,1.717
		s0.87,0.586,1.526,0.586c0.691,0,1.375-0.145,2.051-0.434v0.867c-0.344,0.148-0.669,0.255-0.976,0.319
		S120.902,65.253,120.468,65.253z M120.205,59.412c-0.516,0-0.927,0.168-1.233,0.504s-0.487,0.801-0.542,1.395h3.357
		c0-0.613-0.137-1.083-0.41-1.409S120.712,59.412,120.205,59.412z"/>
	<path d="M128.882,65.136v-4.154c0-0.523-0.119-0.914-0.357-1.172s-0.611-0.387-1.119-0.387c-0.672,0-1.164,0.182-1.477,0.545
		s-0.469,0.963-0.469,1.799v3.369h-0.973v-6.422h0.791l0.158,0.879h0.047c0.199-0.316,0.479-0.562,0.838-0.735
		s0.76-0.261,1.201-0.261c0.773,0,1.355,0.187,1.746,0.56s0.586,0.97,0.586,1.79v4.189H128.882z"/>
	<path d="M133.927,64.451c0.172,0,0.338-0.013,0.498-0.038s0.287-0.052,0.381-0.079v0.744c-0.105,0.051-0.261,0.093-0.466,0.126
		s-0.39,0.05-0.554,0.05c-1.242,0-1.863-0.654-1.863-1.963v-3.82h-0.92v-0.469l0.92-0.404l0.41-1.371h0.562v1.488h1.863v0.756
		h-1.863v3.779c0,0.387,0.092,0.684,0.275,0.891S133.607,64.451,133.927,64.451z"/>
	<path d="M140.232,63.384c0,0.598-0.223,1.059-0.668,1.383s-1.07,0.486-1.875,0.486c-0.852,0-1.516-0.135-1.992-0.404v-0.902
		c0.309,0.156,0.64,0.279,0.993,0.369s0.694,0.135,1.022,0.135c0.508,0,0.898-0.081,1.172-0.243s0.41-0.409,0.41-0.741
		c0-0.25-0.108-0.464-0.325-0.642s-0.64-0.388-1.269-0.63c-0.598-0.223-1.022-0.417-1.274-0.583s-0.439-0.354-0.562-0.565
		s-0.185-0.463-0.185-0.756c0-0.523,0.213-0.937,0.639-1.239s1.01-0.454,1.752-0.454c0.691,0,1.367,0.141,2.027,0.422l-0.346,0.791
		c-0.645-0.266-1.229-0.398-1.752-0.398c-0.461,0-0.809,0.072-1.043,0.217s-0.352,0.344-0.352,0.598
		c0,0.172,0.044,0.318,0.132,0.439s0.229,0.236,0.425,0.346s0.57,0.268,1.125,0.475c0.762,0.277,1.276,0.557,1.544,0.838
		S140.232,62.958,140.232,63.384z"/>
	<path d="M143.853,61.849c0,1.027-0.151,1.984-0.454,2.871s-0.739,1.658-1.31,2.314h-0.938c0.543-0.734,0.959-1.55,1.248-2.446
		s0.434-1.813,0.434-2.751c0-0.953-0.142-1.881-0.425-2.783s-0.706-1.73-1.269-2.484h0.949c0.574,0.684,1.012,1.478,1.312,2.382
		S143.853,60.822,143.853,61.849z"/>
</g>
<g>
	<g>
		<line fill="none" stroke="#000000" stroke-miterlimit="10" x1="55.36" y1="73.085" x2="170.876" y2="73.088"/>
		<g>
			<polygon points="170.146,75.566 174.464,73.074 170.147,70.581 			"/>
		</g>
	</g>
</g>
<g>
	<path d="M360.316,65.637l-2.438-6.422h1.043l1.383,3.809c0.312,0.891,0.496,1.469,0.551,1.734h0.047
		c0.043-0.207,0.179-0.636,0.407-1.286s0.741-2.069,1.538-4.257h1.043l-2.438,6.422H360.316z"/>
	<path d="M368.871,65.637l-0.193-0.914h-0.047c-0.32,0.402-0.64,0.675-0.958,0.817s-0.716,0.214-1.192,0.214
		c-0.637,0-1.136-0.164-1.497-0.492s-0.542-0.795-0.542-1.4c0-1.297,1.037-1.977,3.111-2.039l1.09-0.035v-0.398
		c0-0.504-0.108-0.876-0.325-1.116s-0.563-0.36-1.04-0.36c-0.535,0-1.141,0.164-1.816,0.492l-0.299-0.744
		c0.316-0.172,0.663-0.307,1.04-0.404s0.755-0.146,1.134-0.146c0.766,0,1.333,0.17,1.702,0.51s0.554,0.885,0.554,1.635v4.383
		H368.871z M366.674,64.951c0.605,0,1.081-0.166,1.427-0.498s0.519-0.797,0.519-1.395v-0.58l-0.973,0.041
		c-0.773,0.027-1.331,0.147-1.673,0.36s-0.513,0.544-0.513,0.993c0,0.352,0.106,0.619,0.319,0.803S366.291,64.951,366.674,64.951z"
		/>
	<path d="M372.568,65.637h-0.973V56.52h0.973V65.637z"/>
	<path d="M377.344,65.754c-0.949,0-1.698-0.289-2.247-0.867s-0.823-1.381-0.823-2.408c0-1.035,0.255-1.857,0.765-2.467
		s1.194-0.914,2.054-0.914c0.805,0,1.441,0.265,1.91,0.794s0.703,1.228,0.703,2.095v0.615h-4.424c0.02,0.754,0.21,1.326,0.571,1.717
		s0.87,0.586,1.526,0.586c0.691,0,1.375-0.145,2.051-0.434v0.867c-0.344,0.148-0.669,0.255-0.976,0.319
		S377.777,65.754,377.344,65.754z M377.08,59.912c-0.516,0-0.927,0.168-1.233,0.504s-0.487,0.801-0.542,1.395h3.357
		c0-0.613-0.137-1.083-0.41-1.409S377.588,59.912,377.08,59.912z"/>
	<path d="M382.277,59.215v4.166c0,0.523,0.119,0.914,0.357,1.172s0.611,0.387,1.119,0.387c0.672,0,1.163-0.184,1.474-0.551
		s0.466-0.967,0.466-1.799v-3.375h0.973v6.422h-0.803l-0.141-0.861h-0.053c-0.199,0.316-0.476,0.559-0.829,0.727
		s-0.757,0.252-1.21,0.252c-0.781,0-1.366-0.186-1.755-0.557s-0.583-0.965-0.583-1.781v-4.201H382.277z"/>
	<path d="M391.658,59.098c0.285,0,0.541,0.023,0.768,0.07l-0.135,0.902c-0.266-0.059-0.5-0.088-0.703-0.088
		c-0.52,0-0.964,0.211-1.333,0.633s-0.554,0.947-0.554,1.576v3.445h-0.973v-6.422h0.803l0.111,1.189h0.047
		c0.238-0.418,0.525-0.74,0.861-0.967S391.256,59.098,391.658,59.098z"/>
	<path d="M397.77,63.885c0,0.598-0.223,1.059-0.668,1.383s-1.07,0.486-1.875,0.486c-0.852,0-1.516-0.135-1.992-0.404v-0.902
		c0.309,0.156,0.64,0.279,0.993,0.369s0.694,0.135,1.022,0.135c0.508,0,0.898-0.081,1.172-0.243s0.41-0.409,0.41-0.741
		c0-0.25-0.108-0.464-0.325-0.642s-0.64-0.388-1.269-0.63c-0.598-0.223-1.022-0.417-1.274-0.583s-0.439-0.354-0.562-0.565
		s-0.185-0.463-0.185-0.756c0-0.523,0.213-0.937,0.639-1.239s1.01-0.454,1.752-0.454c0.691,0,1.367,0.141,2.027,0.422l-0.346,0.791
		c-0.645-0.266-1.229-0.398-1.752-0.398c-0.461,0-0.809,0.072-1.043,0.217s-0.352,0.344-0.352,0.598
		c0,0.172,0.044,0.318,0.132,0.439s0.229,0.236,0.425,0.346s0.57,0.268,1.125,0.475c0.762,0.277,1.276,0.557,1.544,0.838
		S397.77,63.459,397.77,63.885z"/>
	<path d="M405.398,59.098c0.285,0,0.541,0.023,0.768,0.07l-0.135,0.902c-0.266-0.059-0.5-0.088-0.703-0.088
		c-0.52,0-0.964,0.211-1.333,0.633s-0.554,0.947-0.554,1.576v3.445h-0.973v-6.422h0.803l0.111,1.189h0.047
		c0.238-0.418,0.525-0.74,0.861-0.967S404.996,59.098,405.398,59.098z"/>
	<path d="M410.08,65.754c-0.949,0-1.698-0.289-2.247-0.867s-0.823-1.381-0.823-2.408c0-1.035,0.255-1.857,0.765-2.467
		s1.194-0.914,2.054-0.914c0.805,0,1.441,0.265,1.91,0.794s0.703,1.228,0.703,2.095v0.615h-4.424c0.02,0.754,0.21,1.326,0.571,1.717
		s0.87,0.586,1.526,0.586c0.691,0,1.375-0.145,2.051-0.434v0.867c-0.344,0.148-0.669,0.255-0.976,0.319
		S410.514,65.754,410.08,65.754z M409.816,59.912c-0.516,0-0.927,0.168-1.233,0.504s-0.487,0.801-0.542,1.395h3.357
		c0-0.613-0.137-1.083-0.41-1.409S410.324,59.912,409.816,59.912z"/>
	<path d="M416.174,64.951c0.172,0,0.338-0.013,0.498-0.038s0.287-0.052,0.381-0.079v0.744c-0.105,0.051-0.261,0.093-0.466,0.126
		s-0.39,0.05-0.554,0.05c-1.242,0-1.863-0.654-1.863-1.963v-3.82h-0.92v-0.469l0.92-0.404l0.41-1.371h0.562v1.488h1.863v0.756
		h-1.863v3.779c0,0.387,0.092,0.684,0.275,0.891S415.854,64.951,416.174,64.951z"/>
	<path d="M423.879,62.42c0,1.047-0.264,1.864-0.791,2.452s-1.256,0.882-2.186,0.882c-0.574,0-1.084-0.135-1.529-0.404
		s-0.789-0.656-1.031-1.16s-0.363-1.094-0.363-1.77c0-1.047,0.262-1.862,0.785-2.446s1.25-0.876,2.18-0.876
		c0.898,0,1.612,0.299,2.142,0.896S423.879,61.4,423.879,62.42z M418.986,62.42c0,0.82,0.164,1.445,0.492,1.875
		s0.811,0.645,1.447,0.645s1.12-0.214,1.45-0.642s0.495-1.054,0.495-1.878c0-0.816-0.165-1.437-0.495-1.86s-0.817-0.636-1.462-0.636
		c-0.637,0-1.117,0.209-1.441,0.627S418.986,61.592,418.986,62.42z"/>
	<path d="M426.498,59.215v4.166c0,0.523,0.119,0.914,0.357,1.172s0.611,0.387,1.119,0.387c0.672,0,1.163-0.184,1.474-0.551
		s0.466-0.967,0.466-1.799v-3.375h0.973v6.422h-0.803l-0.141-0.861h-0.053c-0.199,0.316-0.476,0.559-0.829,0.727
		s-0.757,0.252-1.21,0.252c-0.781,0-1.366-0.186-1.755-0.557s-0.583-0.965-0.583-1.781v-4.201H426.498z"/>
	<path d="M435.879,59.098c0.285,0,0.541,0.023,0.768,0.07l-0.135,0.902c-0.266-0.059-0.5-0.088-0.703-0.088
		c-0.52,0-0.964,0.211-1.333,0.633s-0.554,0.947-0.554,1.576v3.445h-0.973v-6.422h0.803l0.111,1.189h0.047
		c0.238-0.418,0.525-0.74,0.861-0.967S435.477,59.098,435.879,59.098z"/>
	<path d="M442.242,65.637v-4.154c0-0.523-0.119-0.914-0.357-1.172s-0.611-0.387-1.119-0.387c-0.672,0-1.164,0.182-1.477,0.545
		s-0.469,0.963-0.469,1.799v3.369h-0.973v-6.422h0.791l0.158,0.879h0.047c0.199-0.316,0.479-0.562,0.838-0.735
		s0.76-0.261,1.201-0.261c0.773,0,1.355,0.187,1.746,0.56s0.586,0.97,0.586,1.79v4.189H442.242z"/>
	<path d="M447.926,65.754c-0.949,0-1.698-0.289-2.247-0.867s-0.823-1.381-0.823-2.408c0-1.035,0.255-1.857,0.765-2.467
		s1.194-0.914,2.054-0.914c0.805,0,1.441,0.265,1.91,0.794s0.703,1.228,0.703,2.095v0.615h-4.424c0.02,0.754,0.21,1.326,0.571,1.717
		s0.87,0.586,1.526,0.586c0.691,0,1.375-0.145,2.051-0.434v0.867c-0.344,0.148-0.669,0.255-0.976,0.319
		S448.359,65.754,447.926,65.754z M447.662,59.912c-0.516,0-0.927,0.168-1.233,0.504s-0.487,0.801-0.542,1.395h3.357
		c0-0.613-0.137-1.083-0.41-1.409S448.17,59.912,447.662,59.912z M446.941,58.219c0.188-0.242,0.39-0.535,0.606-0.879
		s0.388-0.643,0.513-0.896h1.184v0.123c-0.172,0.254-0.428,0.566-0.768,0.938s-0.635,0.658-0.885,0.861h-0.65V58.219z"/>
	<path d="M454.658,65.754c-0.949,0-1.698-0.289-2.247-0.867s-0.823-1.381-0.823-2.408c0-1.035,0.255-1.857,0.765-2.467
		s1.194-0.914,2.054-0.914c0.805,0,1.441,0.265,1.91,0.794s0.703,1.228,0.703,2.095v0.615h-4.424c0.02,0.754,0.21,1.326,0.571,1.717
		s0.87,0.586,1.526,0.586c0.691,0,1.375-0.145,2.051-0.434v0.867c-0.344,0.148-0.669,0.255-0.976,0.319
		S455.092,65.754,454.658,65.754z M454.395,59.912c-0.516,0-0.927,0.168-1.233,0.504s-0.487,0.801-0.542,1.395h3.357
		c0-0.613-0.137-1.083-0.41-1.409S454.902,59.912,454.395,59.912z"/>
	<path d="M462.82,63.885c0,0.598-0.223,1.059-0.668,1.383s-1.07,0.486-1.875,0.486c-0.852,0-1.516-0.135-1.992-0.404v-0.902
		c0.309,0.156,0.64,0.279,0.993,0.369s0.694,0.135,1.022,0.135c0.508,0,0.898-0.081,1.172-0.243s0.41-0.409,0.41-0.741
		c0-0.25-0.108-0.464-0.325-0.642s-0.64-0.388-1.269-0.63c-0.598-0.223-1.022-0.417-1.274-0.583s-0.439-0.354-0.562-0.565
		s-0.185-0.463-0.185-0.756c0-0.523,0.213-0.937,0.639-1.239s1.01-0.454,1.752-0.454c0.691,0,1.367,0.141,2.027,0.422l-0.346,0.791
		c-0.645-0.266-1.229-0.398-1.752-0.398c-0.461,0-0.809,0.072-1.043,0.217s-0.352,0.344-0.352,0.598
		c0,0.172,0.044,0.318,0.132,0.439s0.229,0.236,0.425,0.346s0.57,0.268,1.125,0.475c0.762,0.277,1.276,0.557,1.544,0.838
		S462.82,63.459,462.82,63.885z"/>
</g>
<g>
	<g>
		<line fill="none" stroke="#000000" stroke-miterlimit="10" x1="348.027" y1="73.085" x2="468.439" y2="73.088"/>
		<g>
			<polygon points="467.709,75.566 472.027,73.074 467.709,70.581 			"/>
		</g>
	</g>
</g>
<g>
	<path fill="#E2E2E1" d="M298.65,178.871c0,1.365-1.117,2.482-2.482,2.482h-78.045c-1.365,0-2.482-1.117-2.482-2.482v-9.936
		c0-1.365,1.117-2.482,2.482-2.482h78.045c1.365,0,2.482,1.117,2.482,2.482V178.871z"/>
</g>
<g>
	<path fill="#E2E2E1" d="M123.15,178.464c0,1.589-1.301,2.89-2.89,2.89H13.53c-1.589,0-2.89-1.301-2.89-2.89v-9.12
		c0-1.59,1.3-2.891,2.89-2.891h106.73c1.589,0,2.89,1.301,2.89,2.891V178.464z"/>
</g>
<circle fill="#E2E2E1" cx="166.15" cy="173.903" r="7.45"/>
<g>
	<g>
		
			<line fill="none" stroke="#E30613" stroke-linecap="round" stroke-miterlimit="10" x1="115.212" y1="173.904" x2="166.15" y2="173.904"/>
		<g>
			<circle fill="#E30613" cx="115.4" cy="173.904" r="3.76"/>
		</g>
	</g>
</g>
<g>
	<g>
		
			<line fill="none" stroke="#E30613" stroke-linecap="round" stroke-miterlimit="10" x1="166.15" y1="173.904" x2="224.566" y2="173.904"/>
		<g>
			<polygon fill="#E30613" points="221.251,177.994 220.57,177.262 224.181,173.904 220.57,170.547 221.251,169.814 225.65,173.904 
							"/>
		</g>
	</g>
</g>
<g>
	<path fill="#575756" d="M21.95,174.091c0-0.459-0.041-0.769-0.124-0.93c-0.082-0.161-0.224-0.242-0.424-0.242
		c-0.239,0-0.429,0.104-0.569,0.312s-0.211,0.495-0.211,0.859v2.031h0.088c0.198,0,0.331,0.023,0.397,0.071
		c0.067,0.047,0.101,0.136,0.101,0.266c0,0.117-0.027,0.205-0.083,0.264s-0.14,0.088-0.254,0.088h-0.62
		c-0.14,0-0.235-0.033-0.286-0.098c-0.05-0.065-0.075-0.205-0.075-0.42v-0.142v-2.061v-0.381c0-0.244-0.055-0.437-0.165-0.579
		c-0.109-0.142-0.26-0.212-0.45-0.212c-0.146,0-0.279,0.043-0.4,0.129s-0.226,0.214-0.312,0.383v2.69h0.181
		c0.195,0,0.327,0.024,0.396,0.073s0.103,0.137,0.103,0.264c0,0.133-0.027,0.226-0.083,0.276s-0.161,0.076-0.317,0.076h-1.307
		c-0.128,0-0.222-0.028-0.282-0.085s-0.091-0.146-0.091-0.266c0-0.13,0.038-0.219,0.115-0.266c0.076-0.047,0.225-0.071,0.446-0.071
		h0.098v-3.13h-0.088c-0.228,0-0.384-0.026-0.466-0.078c-0.084-0.052-0.125-0.143-0.125-0.273c0-0.114,0.033-0.199,0.099-0.256
		s0.163-0.085,0.294-0.085h0.751c0.109,0,0.181,0.019,0.216,0.056c0.034,0.038,0.055,0.116,0.062,0.237
		c0.133-0.143,0.275-0.249,0.428-0.317c0.151-0.068,0.323-0.103,0.515-0.103c0.227,0,0.413,0.05,0.561,0.149s0.257,0.25,0.328,0.452
		c0.137-0.205,0.295-0.356,0.474-0.454s0.384-0.146,0.615-0.146c0.42,0,0.727,0.137,0.921,0.41c0.193,0.273,0.29,0.716,0.29,1.328
		v2.212h0.078c0.202,0,0.337,0.024,0.405,0.073s0.103,0.137,0.103,0.264c0,0.117-0.029,0.205-0.088,0.264s-0.145,0.088-0.259,0.088
		h-0.596c-0.132,0-0.229-0.039-0.292-0.117s-0.094-0.202-0.094-0.371V174.091z"/>
	<path fill="#575756" d="M27.272,176.191c-0.267,0.241-0.558,0.425-0.871,0.552c-0.314,0.127-0.638,0.19-0.97,0.19
		c-0.485,0-0.876-0.135-1.175-0.405c-0.297-0.27-0.446-0.622-0.446-1.055c0-0.514,0.198-0.913,0.593-1.196
		c0.396-0.283,0.952-0.425,1.668-0.425c0.188,0,0.379,0.012,0.571,0.037s0.389,0.062,0.591,0.115v-0.034
		c0-0.375-0.09-0.651-0.269-0.83s-0.457-0.269-0.835-0.269c-0.254,0-0.537,0.068-0.85,0.205s-0.52,0.205-0.62,0.205
		c-0.095,0-0.173-0.038-0.234-0.115s-0.093-0.175-0.093-0.295c0-0.192,0.18-0.355,0.539-0.488c0.36-0.133,0.82-0.2,1.38-0.2
		c0.573,0,1.006,0.146,1.299,0.437s0.439,0.722,0.439,1.292v2.212h0.239c0.231,0,0.386,0.024,0.464,0.073s0.117,0.137,0.117,0.264
		c0,0.117-0.032,0.205-0.098,0.264s-0.163,0.088-0.293,0.088h-0.767c-0.091,0-0.166-0.028-0.225-0.083s-0.098-0.135-0.117-0.239
		L27.272,176.191z M27.233,174.653c-0.179-0.059-0.353-0.102-0.52-0.129c-0.168-0.028-0.335-0.042-0.501-0.042
		c-0.501,0-0.896,0.084-1.187,0.254s-0.435,0.397-0.435,0.684c0,0.221,0.091,0.404,0.271,0.547c0.182,0.143,0.411,0.215,0.691,0.215
		c0.413,0,0.797-0.108,1.15-0.325c0.353-0.216,0.529-0.442,0.529-0.676V174.653z"/>
	<path fill="#575756" d="M35.241,178.593v0.576h-6.177v-0.576H35.241z"/>
	<path fill="#575756" d="M39.655,176.113c0.134,0,0.235,0.029,0.305,0.088c0.07,0.059,0.105,0.145,0.105,0.259
		c0,0.117-0.033,0.205-0.1,0.264c-0.067,0.059-0.164,0.088-0.291,0.088h-3.193c-0.134,0-0.235-0.029-0.305-0.088
		c-0.07-0.059-0.105-0.146-0.105-0.264c0-0.114,0.033-0.2,0.1-0.259c0.067-0.059,0.164-0.088,0.291-0.088h0.83v-2.983h-0.801
		c-0.134,0-0.236-0.031-0.311-0.093c-0.072-0.062-0.109-0.15-0.109-0.264c0-0.117,0.034-0.205,0.103-0.264s0.168-0.088,0.298-0.088
		h0.771v-0.332c0-0.589,0.168-1.017,0.503-1.282s0.877-0.398,1.626-0.398c0.364,0,0.634,0.041,0.809,0.122
		c0.174,0.082,0.261,0.208,0.261,0.381c0,0.101-0.037,0.184-0.112,0.249s-0.171,0.098-0.288,0.098c-0.059,0-0.199-0.02-0.423-0.059
		c-0.223-0.039-0.414-0.059-0.573-0.059c-0.368,0-0.632,0.077-0.791,0.232s-0.239,0.411-0.239,0.769v0.278h1.729
		c0.134,0,0.235,0.029,0.305,0.088c0.07,0.059,0.105,0.146,0.105,0.264c0,0.111-0.036,0.198-0.107,0.261s-0.169,0.095-0.293,0.095
		h-1.689v2.983H39.655z"/>
	<path fill="#575756" d="M46.715,174.56c0,0.697-0.237,1.266-0.713,1.709s-1.092,0.664-1.851,0.664c-0.755,0-1.37-0.221-1.846-0.664
		s-0.713-1.012-0.713-1.709s0.237-1.266,0.713-1.707s1.091-0.662,1.846-0.662s1.371,0.221,1.848,0.664
		C46.477,173.299,46.715,173.867,46.715,174.56z M44.152,176.25c0.501,0,0.912-0.159,1.232-0.476
		c0.321-0.317,0.481-0.722,0.481-1.213s-0.161-0.897-0.483-1.218s-0.732-0.481-1.23-0.481s-0.907,0.16-1.229,0.481
		c-0.32,0.321-0.48,0.727-0.48,1.218c0,0.495,0.159,0.9,0.479,1.216S43.651,176.25,44.152,176.25z"/>
	<path fill="#575756" d="M48.336,176.123v-3.13h-0.093c-0.222,0-0.374-0.026-0.456-0.078c-0.084-0.052-0.125-0.143-0.125-0.273
		c0-0.121,0.034-0.208,0.103-0.261s0.179-0.081,0.332-0.081h0.229h0.469c0.088,0,0.156,0.018,0.205,0.054s0.073,0.084,0.073,0.146
		v0.332c0.237-0.221,0.473-0.385,0.706-0.491c0.232-0.106,0.474-0.159,0.725-0.159c0.491,0,0.878,0.153,1.16,0.459
		c0.281,0.306,0.422,0.729,0.422,1.27v2.212h0.229c0.163,0,0.28,0.027,0.352,0.081s0.107,0.139,0.107,0.256
		c0,0.127-0.038,0.217-0.114,0.271c-0.077,0.054-0.213,0.081-0.408,0.081h-1.079c-0.208,0-0.342-0.024-0.4-0.073
		s-0.088-0.142-0.088-0.278c0-0.127,0.034-0.215,0.103-0.264s0.197-0.073,0.386-0.073h0.171v-2.031c0-0.381-0.086-0.671-0.259-0.872
		s-0.423-0.3-0.752-0.3c-0.332,0-0.625,0.112-0.879,0.337s-0.381,0.503-0.381,0.835v2.031h0.171c0.195,0,0.327,0.024,0.396,0.073
		s0.103,0.137,0.103,0.264c0,0.137-0.029,0.229-0.088,0.278s-0.202,0.073-0.43,0.073h-0.889h-0.264
		c-0.134,0-0.233-0.028-0.301-0.085c-0.066-0.057-0.1-0.146-0.1-0.266c0-0.13,0.038-0.219,0.115-0.266
		c0.076-0.047,0.225-0.071,0.446-0.071H48.336z"/>
	<path fill="#575756" d="M57.624,172.592v-0.02c0-0.107,0.031-0.187,0.093-0.237s0.158-0.076,0.288-0.076
		c0.134,0,0.226,0.039,0.276,0.117c0.05,0.078,0.075,0.239,0.075,0.483v0.908c0,0.121-0.031,0.211-0.093,0.271
		s-0.154,0.09-0.278,0.09c-0.088,0-0.163-0.025-0.228-0.076c-0.062-0.05-0.141-0.155-0.231-0.315
		c-0.156-0.264-0.346-0.463-0.569-0.598c-0.223-0.135-0.479-0.203-0.769-0.203c-0.508,0-0.921,0.15-1.237,0.449
		c-0.318,0.299-0.477,0.687-0.477,1.162c0,0.485,0.152,0.881,0.457,1.189c0.304,0.308,0.695,0.461,1.174,0.461
		c0.218,0,0.426-0.03,0.623-0.09c0.196-0.06,0.383-0.15,0.559-0.271c0.062-0.039,0.145-0.099,0.249-0.181
		c0.212-0.172,0.378-0.259,0.498-0.259c0.101,0,0.183,0.032,0.247,0.095c0.062,0.063,0.095,0.146,0.095,0.247
		c0,0.257-0.243,0.52-0.729,0.789c-0.487,0.269-1.004,0.403-1.551,0.403c-0.706,0-1.295-0.226-1.766-0.679
		c-0.47-0.453-0.705-1.017-0.705-1.694s0.234-1.243,0.703-1.697s1.055-0.681,1.758-0.681c0.247,0,0.496,0.033,0.744,0.1
		C57.08,172.349,57.343,172.452,57.624,172.592z"/>
	<path fill="#575756" d="M63.488,172.573c0.159,0,0.276,0.028,0.349,0.083c0.074,0.055,0.11,0.143,0.11,0.264
		c0,0.114-0.034,0.199-0.103,0.256s-0.171,0.085-0.308,0.085h-1.978v1.631c0,0.534,0.069,0.885,0.207,1.055
		c0.139,0.169,0.376,0.254,0.711,0.254c0.296,0,0.651-0.086,1.064-0.259s0.669-0.259,0.767-0.259c0.091,0,0.169,0.033,0.231,0.098
		c0.064,0.065,0.096,0.145,0.096,0.239c0,0.107-0.04,0.201-0.119,0.281c-0.08,0.08-0.216,0.157-0.408,0.232
		c-0.319,0.127-0.606,0.22-0.861,0.278c-0.256,0.059-0.496,0.088-0.721,0.088c-0.381,0-0.701-0.061-0.959-0.183
		c-0.26-0.122-0.452-0.304-0.579-0.544c-0.065-0.114-0.111-0.249-0.14-0.405c-0.027-0.156-0.041-0.397-0.041-0.723v-0.151v-1.631
		h-0.83c-0.137,0-0.236-0.027-0.298-0.081s-0.093-0.141-0.093-0.261c0-0.133,0.042-0.225,0.127-0.273s0.266-0.073,0.542-0.073h0.552
		v-1.001v-0.259c0-0.14,0.03-0.243,0.09-0.31c0.061-0.067,0.154-0.1,0.281-0.1c0.144,0,0.242,0.041,0.298,0.122
		s0.083,0.267,0.083,0.557v0.991H63.488z"/>
	<path fill="#575756" d="M68.61,176.123h1.567c0.127,0,0.221,0.027,0.281,0.081c0.06,0.054,0.09,0.139,0.09,0.256
		c0,0.133-0.028,0.226-0.086,0.276c-0.057,0.05-0.161,0.076-0.314,0.076h-3.789c-0.13,0-0.228-0.029-0.293-0.088
		s-0.098-0.146-0.098-0.264c0-0.114,0.034-0.199,0.103-0.254s0.171-0.083,0.308-0.083h1.489v-3.13h-0.952
		c-0.134,0-0.235-0.03-0.305-0.09c-0.07-0.06-0.105-0.147-0.105-0.261s0.032-0.199,0.098-0.256s0.163-0.085,0.293-0.085h1.431
		c0.088,0,0.157,0.018,0.208,0.054c0.05,0.036,0.075,0.084,0.075,0.146V176.123z M67.707,170.893c0-0.352,0.031-0.573,0.096-0.664
		c0.062-0.091,0.199-0.137,0.407-0.137c0.202,0,0.335,0.038,0.4,0.115s0.098,0.258,0.098,0.544c0,0.28-0.03,0.453-0.091,0.52
		c-0.06,0.067-0.195,0.1-0.407,0.1c-0.208,0-0.345-0.031-0.407-0.093C67.738,171.217,67.707,171.088,67.707,170.893z"/>
	<path fill="#575756" d="M76.72,174.56c0,0.697-0.237,1.266-0.713,1.709s-1.092,0.664-1.851,0.664c-0.755,0-1.37-0.221-1.846-0.664
		s-0.713-1.012-0.713-1.709s0.237-1.266,0.713-1.707s1.091-0.662,1.846-0.662s1.371,0.221,1.848,0.664
		C76.482,173.299,76.72,173.867,76.72,174.56z M74.157,176.25c0.501,0,0.912-0.159,1.232-0.476c0.321-0.317,0.481-0.722,0.481-1.213
		s-0.161-0.897-0.483-1.218s-0.732-0.481-1.23-0.481s-0.907,0.16-1.229,0.481c-0.32,0.321-0.48,0.727-0.48,1.218
		c0,0.495,0.159,0.9,0.479,1.216S73.656,176.25,74.157,176.25z"/>
	<path fill="#575756" d="M78.341,176.123v-3.13h-0.093c-0.222,0-0.374-0.026-0.456-0.078c-0.084-0.052-0.125-0.143-0.125-0.273
		c0-0.121,0.034-0.208,0.103-0.261s0.179-0.081,0.332-0.081h0.229H78.8c0.088,0,0.156,0.018,0.205,0.054s0.073,0.084,0.073,0.146
		v0.332c0.237-0.221,0.473-0.385,0.706-0.491c0.232-0.106,0.474-0.159,0.725-0.159c0.491,0,0.878,0.153,1.16,0.459
		c0.281,0.306,0.422,0.729,0.422,1.27v2.212h0.229c0.163,0,0.28,0.027,0.352,0.081s0.107,0.139,0.107,0.256
		c0,0.127-0.038,0.217-0.114,0.271c-0.077,0.054-0.213,0.081-0.408,0.081h-1.079c-0.208,0-0.342-0.024-0.4-0.073
		s-0.088-0.142-0.088-0.278c0-0.127,0.034-0.215,0.103-0.264s0.197-0.073,0.386-0.073h0.171v-2.031c0-0.381-0.086-0.671-0.259-0.872
		s-0.423-0.3-0.752-0.3c-0.332,0-0.625,0.112-0.879,0.337s-0.381,0.503-0.381,0.835v2.031h0.171c0.195,0,0.327,0.024,0.396,0.073
		s0.103,0.137,0.103,0.264c0,0.137-0.029,0.229-0.088,0.278s-0.202,0.073-0.43,0.073h-0.889h-0.264
		c-0.134,0-0.233-0.028-0.301-0.085c-0.066-0.057-0.1-0.146-0.1-0.266c0-0.13,0.038-0.219,0.115-0.266
		c0.076-0.047,0.225-0.071,0.446-0.071H78.341z"/>
</g>
<g>
	<g>
		<path fill="#575756" d="M249.19,176.01c0-0.254,0.089-0.462,0.266-0.625c0.178-0.163,0.408-0.244,0.691-0.244
			c0.29,0,0.522,0.08,0.698,0.239s0.264,0.37,0.264,0.63s-0.089,0.47-0.267,0.63c-0.177,0.16-0.409,0.239-0.695,0.239
			s-0.518-0.08-0.693-0.239S249.19,176.271,249.19,176.01z"/>
		<path fill="#575756" d="M255.191,176.01c0-0.254,0.089-0.462,0.266-0.625c0.178-0.163,0.408-0.244,0.691-0.244
			c0.29,0,0.522,0.08,0.698,0.239s0.264,0.37,0.264,0.63s-0.089,0.47-0.267,0.63c-0.177,0.16-0.409,0.239-0.695,0.239
			s-0.518-0.08-0.693-0.239S255.191,176.271,255.191,176.01z"/>
		<path fill="#575756" d="M261.192,176.01c0-0.254,0.089-0.462,0.266-0.625c0.178-0.163,0.408-0.244,0.691-0.244
			c0.29,0,0.522,0.08,0.698,0.239s0.264,0.37,0.264,0.63s-0.089,0.47-0.267,0.63c-0.177,0.16-0.409,0.239-0.695,0.239
			s-0.518-0.08-0.693-0.239S261.192,176.271,261.192,176.01z"/>
	</g>
</g>
<g>
	<g>
		<line fill="none" stroke="#000000" stroke-miterlimit="10" x1="257.144" y1="166.453" x2="257.144" y2="125.341"/>
		<g>
			<polygon points="259.624,126.07 257.13,121.753 254.637,126.07 			"/>
		</g>
	</g>
</g>
<g>
	<path d="M269.359,149.106c-0.631,0-1.122-0.174-1.47-0.522s-0.522-0.84-0.522-1.475c0-0.651,0.121-1.252,0.361-1.802
		s0.574-0.979,0.999-1.287c0.425-0.307,0.902-0.461,1.433-0.461c0.446,0,0.882,0.083,1.309,0.249l-0.229,0.688
		c-0.391-0.166-0.747-0.249-1.069-0.249c-0.365,0-0.697,0.124-0.999,0.374c-0.301,0.248-0.537,0.596-0.708,1.039
		c-0.171,0.445-0.256,0.928-0.256,1.448c0,0.417,0.108,0.74,0.325,0.972s0.515,0.347,0.896,0.347c0.234,0,0.456-0.032,0.664-0.098
		s0.414-0.142,0.615-0.229v0.698C270.303,149.004,269.854,149.106,269.359,149.106z"/>
	<path d="M274.53,143.589c0.619,0,1.107,0.184,1.465,0.549c0.358,0.367,0.537,0.87,0.537,1.512c0,0.612-0.117,1.189-0.352,1.733
		s-0.552,0.964-0.952,1.26s-0.853,0.444-1.357,0.444c-0.625,0-1.115-0.184-1.47-0.552s-0.532-0.871-0.532-1.509
		c0-0.618,0.119-1.2,0.356-1.746c0.238-0.545,0.558-0.963,0.962-1.254C273.591,143.734,274.038,143.589,274.53,143.589z
		 M275.682,145.537c0-0.374-0.102-0.678-0.305-0.911c-0.204-0.232-0.479-0.349-0.828-0.349c-0.355,0-0.673,0.12-0.955,0.361
		s-0.5,0.575-0.654,1.003c-0.155,0.429-0.232,0.904-0.232,1.429c0,0.427,0.104,0.756,0.31,0.989
		c0.207,0.232,0.504,0.349,0.891,0.349c0.338,0,0.643-0.119,0.913-0.356s0.481-0.575,0.632-1.014
		C275.606,146.601,275.682,146.101,275.682,145.537z"/>
	<path d="M280.56,149.009l0.723-3.379c0.065-0.339,0.098-0.573,0.098-0.703c0-0.205-0.058-0.369-0.173-0.493s-0.3-0.186-0.554-0.186
		c-0.29,0-0.572,0.098-0.847,0.293s-0.518,0.474-0.728,0.835s-0.369,0.799-0.476,1.313l-0.493,2.319h-0.82l1.143-5.352h0.679
		l-0.107,0.991h0.049c0.312-0.397,0.614-0.678,0.906-0.843c0.292-0.164,0.593-0.246,0.906-0.246c0.414,0,0.74,0.113,0.979,0.34
		c0.239,0.226,0.359,0.542,0.359,0.949c0,0.257-0.038,0.55-0.112,0.879l-0.698,3.281H280.56z"/>
	<path d="M284.701,148.438c0.179,0,0.414-0.042,0.703-0.127v0.63c-0.111,0.046-0.248,0.085-0.41,0.117s-0.293,0.049-0.391,0.049
		c-0.407,0-0.719-0.097-0.935-0.291c-0.216-0.193-0.325-0.482-0.325-0.866c0-0.215,0.029-0.459,0.088-0.732l0.62-2.939h-0.84
		l0.068-0.356l0.903-0.381l0.61-1.113h0.479l-0.269,1.23h1.338l-0.127,0.62h-1.333l-0.63,2.949
		c-0.059,0.283-0.088,0.498-0.088,0.645c0,0.183,0.047,0.322,0.142,0.42S284.531,148.438,284.701,148.438z"/>
	<path d="M287.123,149.009h-0.82l1.143-5.352h0.82L287.123,149.009z M287.674,142.29c0-0.183,0.052-0.331,0.156-0.447
		c0.104-0.115,0.239-0.173,0.405-0.173c0.287,0,0.43,0.146,0.43,0.439c0,0.179-0.055,0.33-0.164,0.454s-0.235,0.186-0.378,0.186
		c-0.13,0-0.238-0.04-0.322-0.119C287.717,142.55,287.674,142.437,287.674,142.29z"/>
	<path d="M290.956,149.106c-0.599,0-1.069-0.178-1.411-0.532s-0.513-0.847-0.513-1.475c0-0.612,0.121-1.198,0.364-1.761
		c0.243-0.561,0.564-0.998,0.964-1.311s0.841-0.469,1.323-0.469c0.498,0,0.873,0.108,1.123,0.324
		c0.25,0.217,0.376,0.519,0.376,0.906c0,0.586-0.27,1.046-0.811,1.379c-0.541,0.334-1.313,0.501-2.319,0.501h-0.161l-0.02,0.391
		c0,0.427,0.1,0.759,0.3,0.999c0.2,0.238,0.51,0.358,0.93,0.358c0.205,0,0.416-0.029,0.632-0.088s0.486-0.166,0.808-0.322v0.713
		c-0.306,0.144-0.576,0.243-0.811,0.3C291.498,149.078,291.239,149.106,290.956,149.106z M291.634,144.258
		c-0.335,0-0.65,0.153-0.945,0.459s-0.52,0.73-0.676,1.274h0.059c0.742,0,1.311-0.097,1.707-0.291
		c0.396-0.193,0.593-0.474,0.593-0.842c0-0.173-0.06-0.315-0.178-0.43S291.888,144.258,291.634,144.258z"/>
	<path d="M297.044,149.009l0.723-3.379c0.065-0.339,0.098-0.573,0.098-0.703c0-0.205-0.058-0.369-0.173-0.493
		s-0.3-0.186-0.554-0.186c-0.29,0-0.572,0.098-0.847,0.293s-0.518,0.474-0.728,0.835s-0.369,0.799-0.476,1.313l-0.493,2.319h-0.82
		l1.143-5.352h0.679l-0.107,0.991h0.049c0.312-0.397,0.614-0.678,0.906-0.843c0.292-0.164,0.593-0.246,0.906-0.246
		c0.414,0,0.74,0.113,0.979,0.34c0.239,0.226,0.359,0.542,0.359,0.949c0,0.257-0.038,0.55-0.112,0.879l-0.698,3.281H297.044z"/>
	<path d="M301.186,148.438c0.179,0,0.413-0.042,0.703-0.127v0.63c-0.111,0.046-0.248,0.085-0.41,0.117
		c-0.163,0.032-0.293,0.049-0.391,0.049c-0.407,0-0.719-0.097-0.936-0.291c-0.217-0.193-0.324-0.482-0.324-0.866
		c0-0.215,0.029-0.459,0.088-0.732l0.619-2.939h-0.84l0.068-0.356l0.904-0.381l0.609-1.113h0.479l-0.268,1.23h1.338l-0.127,0.62
		h-1.334l-0.629,2.949c-0.059,0.283-0.088,0.498-0.088,0.645c0,0.183,0.047,0.322,0.141,0.42
		C300.884,148.389,301.016,148.438,301.186,148.438z"/>
</g>
<g>
	<path fill="#E2E2E1" d="M176.14,213.341c0,2.2-1.8,4-4,4H14.64c-2.201,0-4-1.8-4-4v-4c0-2.2,1.799-4,4-4h157.5c2.2,0,4,1.8,4,4
		V213.341z"/>
</g>
<g>
	<path fill="#E2E2E1" d="M176.14,228.24c0,2.201-1.801,4-4,4H14.64c-2.201,0-4-1.799-4-4v-4c0-2.199,1.799-4,4-4h157.5
		c2.199,0,4,1.801,4,4V228.24z"/>
</g>
<g>
	<path fill="#E2E2E1" d="M176.14,243.141c0,2.201-1.801,4-4,4H14.64c-2.201,0-4-1.799-4-4v-4c0-2.199,1.799-4,4-4h157.5
		c2.199,0,4,1.801,4,4V243.141z"/>
</g>
<g>
	<path fill="#E2E2E1" d="M176.14,258.041c0,2.2-1.801,4-4,4H14.64c-2.201,0-4-1.8-4-4v-4c0-2.2,1.799-4,4-4h157.5c2.199,0,4,1.8,4,4
		V258.041z"/>
</g>
<g>
	<path d="M19.4,229.241l-0.161-0.762H19.2c-0.267,0.335-0.533,0.562-0.798,0.681c-0.266,0.119-0.597,0.178-0.994,0.178
		c-0.53,0-0.946-0.137-1.248-0.41c-0.301-0.273-0.451-0.663-0.451-1.167c0-1.081,0.864-1.647,2.593-1.699l0.908-0.029v-0.332
		c0-0.42-0.091-0.73-0.271-0.93c-0.182-0.2-0.47-0.3-0.867-0.3c-0.446,0-0.95,0.137-1.514,0.41l-0.249-0.62
		c0.264-0.143,0.553-0.255,0.866-0.337c0.314-0.082,0.63-0.122,0.945-0.122c0.638,0,1.111,0.142,1.418,0.425
		c0.309,0.283,0.462,0.737,0.462,1.362v3.652H19.4z M17.569,228.669c0.505,0,0.901-0.138,1.188-0.415
		c0.289-0.277,0.433-0.664,0.433-1.162v-0.483l-0.811,0.034c-0.645,0.023-1.109,0.123-1.394,0.3
		c-0.285,0.177-0.428,0.453-0.428,0.828c0,0.293,0.089,0.516,0.266,0.669C17.001,228.593,17.25,228.669,17.569,228.669z"/>
	<path d="M24.161,229.338c-0.349,0-0.666-0.064-0.955-0.193c-0.287-0.128-0.529-0.326-0.725-0.593h-0.059
		c0.039,0.312,0.059,0.609,0.059,0.889v2.202H21.67v-7.754h0.659l0.112,0.732h0.039c0.208-0.293,0.451-0.504,0.728-0.635
		s0.594-0.195,0.952-0.195c0.71,0,1.258,0.243,1.643,0.728c0.387,0.485,0.579,1.166,0.579,2.041c0,0.879-0.196,1.562-0.589,2.048
		C25.402,229.095,24.857,229.338,24.161,229.338z M24.043,224.48c-0.547,0-0.942,0.151-1.187,0.454s-0.369,0.785-0.376,1.445v0.181
		c0,0.752,0.125,1.29,0.376,1.614s0.652,0.486,1.206,0.486c0.462,0,0.824-0.187,1.086-0.562c0.263-0.375,0.394-0.89,0.394-1.548
		c0-0.667-0.131-1.179-0.394-1.536C24.887,224.658,24.519,224.48,24.043,224.48z"/>
	<path d="M30.289,229.338c-0.349,0-0.666-0.064-0.955-0.193c-0.287-0.128-0.529-0.326-0.725-0.593H28.55
		c0.039,0.312,0.059,0.609,0.059,0.889v2.202h-0.811v-7.754h0.659l0.112,0.732h0.039c0.208-0.293,0.451-0.504,0.728-0.635
		s0.594-0.195,0.952-0.195c0.71,0,1.258,0.243,1.643,0.728c0.387,0.485,0.579,1.166,0.579,2.041c0,0.879-0.196,1.562-0.589,2.048
		C31.53,229.095,30.985,229.338,30.289,229.338z M30.171,224.48c-0.547,0-0.942,0.151-1.187,0.454s-0.369,0.785-0.376,1.445v0.181
		c0,0.752,0.125,1.29,0.376,1.614s0.652,0.486,1.206,0.486c0.462,0,0.824-0.187,1.086-0.562c0.263-0.375,0.394-0.89,0.394-1.548
		c0-0.667-0.131-1.179-0.394-1.536C31.015,224.658,30.647,224.48,30.171,224.48z"/>
	<path d="M36.187,229.338c-0.791,0-1.415-0.241-1.872-0.723c-0.458-0.482-0.687-1.151-0.687-2.007c0-0.863,0.212-1.548,0.638-2.056
		c0.424-0.508,0.995-0.762,1.711-0.762c0.671,0,1.201,0.221,1.592,0.662s0.586,1.023,0.586,1.746v0.513h-3.687
		c0.017,0.628,0.175,1.105,0.476,1.431c0.302,0.326,0.726,0.488,1.272,0.488c0.576,0,1.146-0.121,1.709-0.361v0.723
		c-0.286,0.124-0.558,0.212-0.813,0.266C36.857,229.312,36.548,229.338,36.187,229.338z M35.967,224.47
		c-0.43,0-0.772,0.14-1.027,0.42c-0.256,0.28-0.406,0.667-0.452,1.162h2.798c0-0.511-0.114-0.902-0.342-1.174
		S36.39,224.47,35.967,224.47z"/>
	<path d="M40.347,229.241h-0.811v-7.598h0.811V229.241z"/>
	<path d="M48.306,228.523h-0.044c-0.374,0.543-0.935,0.815-1.68,0.815c-0.7,0-1.244-0.239-1.634-0.718
		c-0.389-0.479-0.583-1.159-0.583-2.041s0.195-1.567,0.586-2.056s0.935-0.732,1.631-0.732c0.726,0,1.282,0.264,1.67,0.791h0.063
		l-0.034-0.386l-0.02-0.376v-2.178h0.811v7.598h-0.659L48.306,228.523z M46.685,228.66c0.554,0,0.955-0.15,1.203-0.452
		c0.25-0.301,0.374-0.787,0.374-1.458v-0.171c0-0.758-0.126-1.3-0.378-1.624c-0.253-0.324-0.655-0.486-1.209-0.486
		c-0.476,0-0.839,0.185-1.092,0.554c-0.252,0.37-0.378,0.891-0.378,1.565c0,0.684,0.125,1.2,0.376,1.548S46.2,228.66,46.685,228.66z
		"/>
	<path d="M53.052,229.338c-0.791,0-1.415-0.241-1.872-0.723c-0.458-0.482-0.687-1.151-0.687-2.007c0-0.863,0.212-1.548,0.638-2.056
		c0.424-0.508,0.995-0.762,1.711-0.762c0.671,0,1.201,0.221,1.592,0.662s0.586,1.023,0.586,1.746v0.513h-3.687
		c0.017,0.628,0.175,1.105,0.476,1.431c0.302,0.326,0.726,0.488,1.272,0.488c0.576,0,1.146-0.121,1.709-0.361v0.723
		c-0.286,0.124-0.558,0.212-0.813,0.266C53.722,229.312,53.414,229.338,53.052,229.338z M52.833,224.47
		c-0.43,0-0.772,0.14-1.027,0.42c-0.256,0.28-0.406,0.667-0.452,1.162h2.798c0-0.511-0.114-0.902-0.342-1.174
		S53.255,224.47,52.833,224.47z"/>
</g>
<g>
	<path fill="#575756" d="M64.616,226.521c0-0.459-0.041-0.769-0.124-0.93c-0.082-0.161-0.224-0.242-0.424-0.242
		c-0.239,0-0.429,0.104-0.569,0.312s-0.211,0.495-0.211,0.859v2.031h0.088c0.198,0,0.331,0.023,0.397,0.071
		c0.067,0.047,0.101,0.136,0.101,0.266c0,0.117-0.027,0.205-0.083,0.264s-0.14,0.088-0.254,0.088h-0.62
		c-0.14,0-0.235-0.033-0.286-0.098c-0.05-0.065-0.075-0.205-0.075-0.42v-0.142v-2.061v-0.381c0-0.244-0.055-0.437-0.165-0.579
		c-0.109-0.142-0.26-0.212-0.45-0.212c-0.146,0-0.279,0.043-0.4,0.129s-0.226,0.214-0.312,0.383v2.69h0.181
		c0.195,0,0.327,0.024,0.396,0.073s0.103,0.137,0.103,0.264c0,0.133-0.027,0.226-0.083,0.276s-0.161,0.076-0.317,0.076h-1.307
		c-0.128,0-0.222-0.028-0.282-0.085s-0.091-0.146-0.091-0.266c0-0.13,0.038-0.219,0.115-0.266c0.076-0.047,0.225-0.071,0.446-0.071
		h0.098v-3.13h-0.088c-0.228,0-0.384-0.026-0.466-0.078c-0.084-0.052-0.125-0.143-0.125-0.273c0-0.114,0.033-0.199,0.099-0.256
		s0.163-0.085,0.294-0.085h0.751c0.109,0,0.181,0.019,0.216,0.056c0.034,0.038,0.055,0.116,0.062,0.237
		c0.133-0.143,0.275-0.249,0.428-0.317c0.151-0.068,0.323-0.103,0.515-0.103c0.227,0,0.413,0.05,0.561,0.149s0.257,0.25,0.328,0.452
		c0.137-0.205,0.295-0.356,0.474-0.454s0.384-0.146,0.615-0.146c0.42,0,0.727,0.137,0.921,0.41c0.193,0.273,0.29,0.716,0.29,1.328
		v2.212h0.078c0.202,0,0.337,0.024,0.405,0.073s0.103,0.137,0.103,0.264c0,0.117-0.029,0.205-0.088,0.264s-0.145,0.088-0.259,0.088
		h-0.596c-0.132,0-0.229-0.039-0.292-0.117s-0.094-0.202-0.094-0.371V226.521z"/>
	<path fill="#575756" d="M69.938,228.621c-0.267,0.241-0.558,0.425-0.871,0.552c-0.314,0.127-0.638,0.19-0.97,0.19
		c-0.485,0-0.876-0.135-1.175-0.405c-0.297-0.27-0.446-0.622-0.446-1.055c0-0.514,0.198-0.913,0.593-1.196
		c0.396-0.283,0.952-0.425,1.668-0.425c0.188,0,0.379,0.012,0.571,0.037s0.389,0.062,0.591,0.115v-0.034
		c0-0.375-0.09-0.651-0.269-0.83s-0.457-0.269-0.835-0.269c-0.254,0-0.537,0.068-0.85,0.205s-0.52,0.205-0.62,0.205
		c-0.095,0-0.173-0.038-0.234-0.115s-0.093-0.175-0.093-0.295c0-0.192,0.18-0.355,0.539-0.488c0.36-0.133,0.82-0.2,1.38-0.2
		c0.573,0,1.006,0.146,1.299,0.437s0.439,0.722,0.439,1.292v2.212h0.239c0.231,0,0.386,0.024,0.464,0.073s0.117,0.137,0.117,0.264
		c0,0.117-0.032,0.205-0.098,0.264s-0.163,0.088-0.293,0.088h-0.767c-0.091,0-0.166-0.028-0.225-0.083s-0.098-0.135-0.117-0.239
		L69.938,228.621z M69.899,227.083c-0.179-0.059-0.353-0.102-0.52-0.129c-0.168-0.028-0.335-0.042-0.501-0.042
		c-0.501,0-0.896,0.084-1.187,0.254s-0.435,0.397-0.435,0.684c0,0.221,0.091,0.404,0.271,0.547c0.182,0.143,0.411,0.215,0.691,0.215
		c0.413,0,0.797-0.108,1.15-0.325c0.353-0.216,0.529-0.442,0.529-0.676V227.083z"/>
	<path fill="#575756" d="M77.907,231.023v0.576H71.73v-0.576H77.907z"/>
	<path fill="#575756" d="M82.321,228.542c0.134,0,0.235,0.029,0.305,0.088c0.07,0.059,0.105,0.145,0.105,0.259
		c0,0.117-0.033,0.205-0.1,0.264c-0.067,0.059-0.164,0.088-0.291,0.088h-3.193c-0.134,0-0.235-0.029-0.305-0.088
		c-0.07-0.059-0.105-0.146-0.105-0.264c0-0.114,0.033-0.2,0.1-0.259c0.067-0.059,0.164-0.088,0.291-0.088h0.83v-2.983h-0.801
		c-0.134,0-0.236-0.031-0.311-0.093c-0.072-0.062-0.109-0.15-0.109-0.264c0-0.117,0.034-0.205,0.103-0.264s0.168-0.088,0.298-0.088
		h0.771v-0.332c0-0.589,0.168-1.017,0.503-1.282s0.877-0.398,1.626-0.398c0.364,0,0.634,0.041,0.809,0.122
		c0.174,0.082,0.261,0.208,0.261,0.381c0,0.101-0.037,0.184-0.112,0.249s-0.171,0.098-0.288,0.098c-0.059,0-0.199-0.02-0.423-0.059
		c-0.223-0.039-0.414-0.059-0.573-0.059c-0.368,0-0.632,0.077-0.791,0.232s-0.239,0.411-0.239,0.769v0.278h1.729
		c0.134,0,0.235,0.029,0.305,0.088c0.07,0.059,0.105,0.146,0.105,0.264c0,0.111-0.036,0.198-0.107,0.261s-0.169,0.095-0.293,0.095
		h-1.689v2.983H82.321z"/>
	<path fill="#575756" d="M89.382,226.99c0,0.697-0.237,1.266-0.713,1.709s-1.092,0.664-1.851,0.664c-0.755,0-1.37-0.221-1.846-0.664
		s-0.713-1.012-0.713-1.709s0.237-1.266,0.713-1.707s1.091-0.662,1.846-0.662s1.371,0.221,1.848,0.664
		C89.144,225.729,89.382,226.296,89.382,226.99z M86.818,228.679c0.501,0,0.912-0.159,1.232-0.476
		c0.321-0.317,0.481-0.722,0.481-1.213s-0.161-0.897-0.483-1.218s-0.732-0.481-1.23-0.481s-0.907,0.16-1.229,0.481
		c-0.32,0.321-0.48,0.727-0.48,1.218c0,0.495,0.159,0.9,0.479,1.216S86.317,228.679,86.818,228.679z"/>
	<path fill="#575756" d="M91.003,228.552v-3.13H90.91c-0.222,0-0.374-0.026-0.456-0.078c-0.084-0.052-0.125-0.143-0.125-0.273
		c0-0.121,0.034-0.208,0.103-0.261s0.179-0.081,0.332-0.081h0.229h0.469c0.088,0,0.156,0.018,0.205,0.054s0.073,0.084,0.073,0.146
		v0.332c0.237-0.221,0.473-0.385,0.706-0.491c0.232-0.106,0.474-0.159,0.725-0.159c0.491,0,0.878,0.153,1.16,0.459
		c0.281,0.306,0.422,0.729,0.422,1.27v2.212h0.229c0.163,0,0.28,0.027,0.352,0.081s0.107,0.139,0.107,0.256
		c0,0.127-0.038,0.217-0.114,0.271c-0.077,0.054-0.213,0.081-0.408,0.081H93.84c-0.208,0-0.342-0.024-0.4-0.073
		s-0.088-0.142-0.088-0.278c0-0.127,0.034-0.215,0.103-0.264s0.197-0.073,0.386-0.073h0.171v-2.031c0-0.381-0.086-0.671-0.259-0.872
		s-0.423-0.3-0.752-0.3c-0.332,0-0.625,0.112-0.879,0.337s-0.381,0.503-0.381,0.835v2.031h0.171c0.195,0,0.327,0.024,0.396,0.073
		s0.103,0.137,0.103,0.264c0,0.137-0.029,0.229-0.088,0.278s-0.202,0.073-0.43,0.073h-0.889h-0.264
		c-0.134,0-0.233-0.028-0.301-0.085c-0.066-0.057-0.1-0.146-0.1-0.266c0-0.13,0.038-0.219,0.115-0.266
		c0.076-0.047,0.225-0.071,0.446-0.071H91.003z"/>
	<path fill="#575756" d="M100.29,225.022v-0.02c0-0.107,0.031-0.187,0.093-0.237s0.158-0.076,0.288-0.076
		c0.134,0,0.226,0.039,0.276,0.117c0.05,0.078,0.075,0.239,0.075,0.483v0.908c0,0.121-0.031,0.211-0.093,0.271
		s-0.154,0.09-0.278,0.09c-0.088,0-0.163-0.025-0.228-0.076c-0.062-0.05-0.141-0.155-0.231-0.315
		c-0.156-0.264-0.346-0.463-0.569-0.598c-0.223-0.135-0.479-0.203-0.769-0.203c-0.508,0-0.921,0.15-1.237,0.449
		c-0.318,0.299-0.477,0.687-0.477,1.162c0,0.485,0.152,0.881,0.457,1.189c0.304,0.308,0.695,0.461,1.174,0.461
		c0.218,0,0.426-0.03,0.623-0.09c0.196-0.06,0.383-0.15,0.559-0.271c0.062-0.039,0.145-0.099,0.249-0.181
		c0.212-0.172,0.378-0.259,0.498-0.259c0.101,0,0.183,0.032,0.247,0.095c0.062,0.063,0.095,0.146,0.095,0.247
		c0,0.257-0.243,0.52-0.729,0.789c-0.487,0.269-1.004,0.403-1.551,0.403c-0.706,0-1.295-0.226-1.766-0.679
		c-0.47-0.453-0.705-1.017-0.705-1.694s0.234-1.243,0.703-1.697s1.055-0.681,1.758-0.681c0.247,0,0.496,0.033,0.744,0.1
		C99.746,224.779,100.01,224.882,100.29,225.022z"/>
	<path fill="#575756" d="M106.154,225.002c0.159,0,0.276,0.028,0.349,0.083c0.074,0.055,0.11,0.143,0.11,0.264
		c0,0.114-0.034,0.199-0.103,0.256s-0.171,0.085-0.308,0.085h-1.978v1.631c0,0.534,0.069,0.885,0.207,1.055
		c0.139,0.169,0.376,0.254,0.711,0.254c0.296,0,0.651-0.086,1.064-0.259s0.669-0.259,0.767-0.259c0.091,0,0.169,0.033,0.231,0.098
		c0.064,0.065,0.096,0.145,0.096,0.239c0,0.107-0.04,0.201-0.119,0.281c-0.08,0.08-0.216,0.157-0.408,0.232
		c-0.319,0.127-0.606,0.22-0.861,0.278c-0.256,0.059-0.496,0.088-0.721,0.088c-0.381,0-0.701-0.061-0.959-0.183
		c-0.26-0.122-0.452-0.304-0.579-0.544c-0.065-0.114-0.111-0.249-0.14-0.405c-0.027-0.156-0.041-0.397-0.041-0.723v-0.151v-1.631
		h-0.83c-0.137,0-0.236-0.027-0.298-0.081s-0.093-0.141-0.093-0.261c0-0.133,0.042-0.225,0.127-0.273s0.266-0.073,0.542-0.073h0.552
		v-1.001v-0.259c0-0.14,0.03-0.243,0.09-0.31c0.061-0.067,0.154-0.1,0.281-0.1c0.144,0,0.242,0.041,0.298,0.122
		s0.083,0.267,0.083,0.557v0.991H106.154z"/>
	<path fill="#575756" d="M111.276,228.552h1.567c0.127,0,0.221,0.027,0.281,0.081c0.06,0.054,0.09,0.139,0.09,0.256
		c0,0.133-0.028,0.226-0.086,0.276c-0.057,0.05-0.161,0.076-0.314,0.076h-3.789c-0.13,0-0.228-0.029-0.293-0.088
		s-0.098-0.146-0.098-0.264c0-0.114,0.034-0.199,0.103-0.254s0.171-0.083,0.308-0.083h1.489v-3.13h-0.952
		c-0.134,0-0.235-0.03-0.305-0.09c-0.07-0.06-0.105-0.147-0.105-0.261s0.032-0.199,0.098-0.256s0.163-0.085,0.293-0.085h1.431
		c0.088,0,0.157,0.018,0.208,0.054c0.05,0.036,0.075,0.084,0.075,0.146V228.552z M110.373,223.323c0-0.352,0.031-0.573,0.096-0.664
		c0.062-0.091,0.199-0.137,0.407-0.137c0.202,0,0.335,0.038,0.4,0.115s0.098,0.258,0.098,0.544c0,0.28-0.03,0.453-0.091,0.52
		c-0.06,0.067-0.195,0.1-0.407,0.1c-0.208,0-0.345-0.031-0.407-0.093C110.404,223.646,110.373,223.518,110.373,223.323z"/>
	<path fill="#575756" d="M119.387,226.99c0,0.697-0.237,1.266-0.713,1.709s-1.092,0.664-1.851,0.664
		c-0.755,0-1.37-0.221-1.846-0.664s-0.713-1.012-0.713-1.709s0.237-1.266,0.713-1.707s1.091-0.662,1.846-0.662
		s1.371,0.221,1.848,0.664C119.148,225.729,119.387,226.296,119.387,226.99z M116.823,228.679c0.501,0,0.912-0.159,1.232-0.476
		c0.321-0.317,0.481-0.722,0.481-1.213s-0.161-0.897-0.483-1.218s-0.732-0.481-1.23-0.481s-0.907,0.16-1.229,0.481
		c-0.32,0.321-0.48,0.727-0.48,1.218c0,0.495,0.159,0.9,0.479,1.216S116.322,228.679,116.823,228.679z"/>
	<path fill="#575756" d="M121.008,228.552v-3.13h-0.093c-0.222,0-0.374-0.026-0.456-0.078c-0.084-0.052-0.125-0.143-0.125-0.273
		c0-0.121,0.034-0.208,0.103-0.261s0.179-0.081,0.332-0.081h0.229h0.469c0.088,0,0.156,0.018,0.205,0.054s0.073,0.084,0.073,0.146
		v0.332c0.237-0.221,0.473-0.385,0.706-0.491c0.232-0.106,0.474-0.159,0.725-0.159c0.491,0,0.878,0.153,1.16,0.459
		c0.281,0.306,0.422,0.729,0.422,1.27v2.212h0.229c0.163,0,0.28,0.027,0.352,0.081s0.107,0.139,0.107,0.256
		c0,0.127-0.038,0.217-0.114,0.271c-0.077,0.054-0.213,0.081-0.408,0.081h-1.079c-0.208,0-0.342-0.024-0.4-0.073
		s-0.088-0.142-0.088-0.278c0-0.127,0.034-0.215,0.103-0.264s0.197-0.073,0.386-0.073h0.171v-2.031c0-0.381-0.086-0.671-0.259-0.872
		s-0.423-0.3-0.752-0.3c-0.332,0-0.625,0.112-0.879,0.337s-0.381,0.503-0.381,0.835v2.031h0.171c0.195,0,0.327,0.024,0.396,0.073
		s0.103,0.137,0.103,0.264c0,0.137-0.029,0.229-0.088,0.278s-0.202,0.073-0.43,0.073h-0.889h-0.264
		c-0.134,0-0.233-0.028-0.301-0.085c-0.066-0.057-0.1-0.146-0.1-0.266c0-0.13,0.038-0.219,0.115-0.266
		c0.076-0.047,0.225-0.071,0.446-0.071H121.008z"/>
</g>
<g>
	<g>
		<path fill="none" stroke="#000000" stroke-miterlimit="10" d="M184.692,226.24c16.713,0,68.557,1.018,72.245-29.987"/>
		<g>
			<polygon points="259.291,197.16 257.13,192.667 254.318,196.784 			"/>
		</g>
	</g>
</g>
<g>
	<path d="M242.987,232.241h-0.82l1.621-7.598h0.82L242.987,232.241z"/>
	<path d="M247.547,226.792c0.299,0,0.566,0.08,0.801,0.242c0.234,0.16,0.417,0.393,0.547,0.695h0.054l0.327-0.84h0.62l-1.138,5.352
		h-0.649l0.127-1.021h-0.039c-0.583,0.745-1.196,1.118-1.841,1.118c-0.453,0-0.807-0.161-1.064-0.483s-0.386-0.764-0.386-1.323
		c0-0.677,0.116-1.306,0.347-1.885s0.55-1.033,0.957-1.362S247.062,226.792,247.547,226.792z M246.62,231.66
		c0.316,0,0.63-0.15,0.942-0.452c0.312-0.301,0.566-0.693,0.762-1.176c0.195-0.484,0.293-0.968,0.293-1.453
		c0-0.335-0.091-0.603-0.273-0.801s-0.421-0.298-0.718-0.298c-0.338,0-0.653,0.14-0.945,0.42s-0.52,0.659-0.686,1.138
		s-0.249,0.983-0.249,1.514c0,0.371,0.077,0.648,0.229,0.832C246.128,231.568,246.343,231.66,246.62,231.66z"/>
	<path d="M253.636,232.241l0.723-3.379c0.065-0.339,0.098-0.573,0.098-0.703c0-0.205-0.058-0.369-0.173-0.493
		s-0.3-0.186-0.554-0.186c-0.29,0-0.572,0.098-0.847,0.293s-0.518,0.474-0.728,0.835s-0.369,0.799-0.476,1.313l-0.493,2.319h-0.82
		l1.143-5.352h0.679l-0.107,0.991h0.049c0.312-0.397,0.614-0.678,0.906-0.843c0.292-0.164,0.593-0.246,0.906-0.246
		c0.414,0,0.74,0.113,0.979,0.34c0.239,0.226,0.359,0.542,0.359,0.949c0,0.257-0.038,0.55-0.112,0.879l-0.698,3.281H253.636z"/>
	<path d="M258.319,232.339c-0.631,0-1.122-0.174-1.47-0.522s-0.522-0.84-0.522-1.475c0-0.651,0.121-1.252,0.361-1.802
		s0.574-0.979,0.999-1.287c0.425-0.307,0.902-0.461,1.433-0.461c0.446,0,0.882,0.083,1.309,0.249l-0.229,0.688
		c-0.391-0.166-0.747-0.249-1.069-0.249c-0.365,0-0.697,0.124-0.999,0.374c-0.301,0.248-0.537,0.596-0.708,1.039
		c-0.171,0.445-0.256,0.928-0.256,1.448c0,0.417,0.108,0.74,0.325,0.972s0.515,0.347,0.896,0.347c0.234,0,0.456-0.032,0.664-0.098
		s0.414-0.142,0.615-0.229v0.698C259.263,232.236,258.813,232.339,258.319,232.339z"/>
	<path d="M262.752,232.339c-0.599,0-1.069-0.178-1.411-0.532s-0.513-0.847-0.513-1.475c0-0.612,0.121-1.198,0.364-1.761
		c0.243-0.561,0.564-0.998,0.964-1.311s0.841-0.469,1.323-0.469c0.498,0,0.873,0.108,1.123,0.324
		c0.25,0.217,0.376,0.519,0.376,0.906c0,0.586-0.27,1.046-0.811,1.379c-0.541,0.334-1.313,0.501-2.319,0.501h-0.161l-0.02,0.391
		c0,0.427,0.1,0.759,0.3,0.999c0.2,0.238,0.51,0.358,0.93,0.358c0.205,0,0.416-0.029,0.632-0.088s0.486-0.166,0.808-0.322v0.713
		c-0.306,0.144-0.576,0.243-0.811,0.3C263.294,232.311,263.036,232.339,262.752,232.339z M263.431,227.49
		c-0.335,0-0.65,0.153-0.945,0.459s-0.52,0.73-0.676,1.274h0.059c0.742,0,1.311-0.097,1.707-0.291
		c0.396-0.193,0.593-0.474,0.593-0.842c0-0.173-0.06-0.315-0.178-0.43S263.685,227.49,263.431,227.49z"/>
	<path d="M268.978,232.241h-0.82l1.621-7.598h0.82L268.978,232.241z"/>
	<path d="M272.938,225.103l0.039,0.107c-0.13,0.296-0.311,0.652-0.542,1.066c-0.231,0.416-0.49,0.84-0.776,1.272h-0.63
		c0.436-0.97,0.767-1.785,0.991-2.446H272.938z"/>
	<path d="M274.52,232.339c-0.599,0-1.069-0.178-1.411-0.532s-0.513-0.847-0.513-1.475c0-0.612,0.121-1.198,0.364-1.761
		c0.243-0.561,0.564-0.998,0.964-1.311s0.841-0.469,1.323-0.469c0.498,0,0.873,0.108,1.123,0.324
		c0.25,0.217,0.376,0.519,0.376,0.906c0,0.586-0.27,1.046-0.811,1.379c-0.541,0.334-1.313,0.501-2.319,0.501h-0.161l-0.02,0.391
		c0,0.427,0.1,0.759,0.3,0.999c0.2,0.238,0.51,0.358,0.93,0.358c0.205,0,0.416-0.029,0.632-0.088s0.486-0.166,0.808-0.322v0.713
		c-0.306,0.144-0.576,0.243-0.811,0.3C275.062,232.311,274.803,232.339,274.52,232.339z M275.199,227.49
		c-0.335,0-0.65,0.153-0.945,0.459s-0.52,0.73-0.676,1.274h0.059c0.742,0,1.311-0.097,1.707-0.291
		c0.396-0.193,0.593-0.474,0.593-0.842c0-0.173-0.06-0.315-0.178-0.43S275.453,227.49,275.199,227.49z"/>
	<path d="M279.33,230.122l-1.689,2.119h-0.952l2.319-2.759l-1.167-2.593h0.83l0.85,2.012l1.611-2.012h0.947l-2.222,2.632l1.23,2.72
		h-0.82L279.33,230.122z"/>
	<path d="M284.232,232.339c-0.599,0-1.069-0.178-1.411-0.532s-0.513-0.847-0.513-1.475c0-0.612,0.121-1.198,0.364-1.761
		c0.243-0.561,0.564-0.998,0.964-1.311s0.841-0.469,1.323-0.469c0.498,0,0.873,0.108,1.123,0.324
		c0.25,0.217,0.376,0.519,0.376,0.906c0,0.586-0.27,1.046-0.811,1.379c-0.541,0.334-1.313,0.501-2.319,0.501h-0.161l-0.02,0.391
		c0,0.427,0.1,0.759,0.3,0.999c0.2,0.238,0.51,0.358,0.93,0.358c0.205,0,0.416-0.029,0.632-0.088s0.486-0.166,0.808-0.322v0.713
		c-0.306,0.144-0.576,0.243-0.811,0.3C284.774,232.311,284.515,232.339,284.232,232.339z M284.911,227.49
		c-0.335,0-0.65,0.153-0.945,0.459s-0.52,0.73-0.676,1.274h0.059c0.742,0,1.311-0.097,1.707-0.291
		c0.396-0.193,0.593-0.474,0.593-0.842c0-0.173-0.06-0.315-0.178-0.43S285.165,227.49,284.911,227.49z M284.686,226.05
		c0.182-0.195,0.387-0.441,0.613-0.74c0.226-0.297,0.399-0.541,0.52-0.729h0.928v0.103c-0.124,0.159-0.352,0.405-0.684,0.737
		s-0.62,0.586-0.864,0.762h-0.513V226.05z"/>
	<path d="M289.232,232.339c-0.631,0-1.122-0.174-1.47-0.522s-0.522-0.84-0.522-1.475c0-0.651,0.121-1.252,0.361-1.802
		s0.574-0.979,0.999-1.287c0.425-0.307,0.902-0.461,1.433-0.461c0.446,0,0.882,0.083,1.309,0.249l-0.229,0.688
		c-0.391-0.166-0.747-0.249-1.069-0.249c-0.365,0-0.697,0.124-0.999,0.374c-0.301,0.248-0.537,0.596-0.708,1.039
		c-0.171,0.445-0.256,0.928-0.256,1.448c0,0.417,0.108,0.74,0.325,0.972s0.515,0.347,0.896,0.347c0.234,0,0.456-0.032,0.664-0.098
		s0.414-0.142,0.615-0.229v0.698C290.176,232.236,289.727,232.339,289.232,232.339z"/>
	<path d="M293.465,226.89l-0.732,3.394c-0.059,0.29-0.088,0.516-0.088,0.679c0,0.466,0.239,0.698,0.718,0.698
		c0.287,0,0.568-0.098,0.845-0.293s0.521-0.476,0.732-0.84s0.373-0.804,0.483-1.318l0.488-2.319h0.811l-1.128,5.352h-0.679
		l0.107-0.991h-0.059c-0.319,0.407-0.624,0.69-0.913,0.85s-0.589,0.239-0.898,0.239c-0.417,0-0.744-0.113-0.981-0.34
		c-0.238-0.226-0.356-0.549-0.356-0.969c0-0.202,0.036-0.481,0.107-0.84l0.713-3.301H293.465z"/>
	<path d="M298.963,231.67c0.179,0,0.414-0.042,0.703-0.127v0.63c-0.11,0.046-0.247,0.085-0.41,0.117
		c-0.162,0.032-0.292,0.049-0.39,0.049c-0.407,0-0.719-0.097-0.935-0.291c-0.216-0.193-0.325-0.482-0.325-0.866
		c0-0.215,0.029-0.459,0.088-0.732l0.62-2.939h-0.84l0.068-0.356l0.903-0.381l0.611-1.113h0.479l-0.27,1.23h1.338l-0.127,0.62
		h-1.332l-0.63,2.949c-0.059,0.283-0.088,0.498-0.088,0.645c0,0.183,0.047,0.322,0.142,0.42S298.794,231.67,298.963,231.67z"/>
	<path d="M301.385,232.241h-0.82l1.143-5.352h0.82L301.385,232.241z M301.938,225.522c0-0.183,0.052-0.331,0.156-0.447
		c0.104-0.115,0.238-0.173,0.404-0.173c0.287,0,0.43,0.146,0.43,0.439c0,0.179-0.055,0.33-0.163,0.454s-0.235,0.186-0.378,0.186
		c-0.131,0-0.238-0.04-0.322-0.119C301.979,225.782,301.938,225.669,301.938,225.522z"/>
	<path d="M305.955,226.821c0.619,0,1.107,0.184,1.465,0.549c0.357,0.367,0.537,0.87,0.537,1.512c0,0.612-0.117,1.189-0.352,1.733
		s-0.551,0.964-0.951,1.26s-0.854,0.444-1.357,0.444c-0.625,0-1.115-0.184-1.471-0.552c-0.354-0.368-0.531-0.871-0.531-1.509
		c0-0.618,0.118-1.2,0.355-1.746c0.238-0.545,0.559-0.963,0.963-1.254C305.017,226.967,305.464,226.821,305.955,226.821z
		 M307.107,228.77c0-0.374-0.102-0.678-0.305-0.911c-0.203-0.232-0.479-0.349-0.828-0.349c-0.354,0-0.672,0.12-0.954,0.361
		s-0.499,0.575-0.654,1.003c-0.155,0.429-0.231,0.904-0.231,1.429c0,0.427,0.104,0.756,0.31,0.989
		c0.206,0.232,0.504,0.349,0.892,0.349c0.338,0,0.643-0.119,0.912-0.356c0.271-0.237,0.481-0.575,0.633-1.014
		C307.032,229.833,307.107,229.333,307.107,228.77z"/>
	<path d="M311.986,232.241l0.723-3.379c0.064-0.339,0.098-0.573,0.098-0.703c0-0.205-0.059-0.369-0.174-0.493
		s-0.301-0.186-0.555-0.186c-0.289,0-0.572,0.098-0.848,0.293c-0.273,0.195-0.518,0.474-0.727,0.835
		c-0.211,0.361-0.369,0.799-0.477,1.313l-0.492,2.319h-0.82l1.143-5.352h0.678l-0.107,0.991h0.049
		c0.312-0.397,0.615-0.678,0.906-0.843c0.291-0.164,0.594-0.246,0.906-0.246c0.412,0,0.738,0.113,0.979,0.34
		c0.238,0.226,0.359,0.542,0.359,0.949c0,0.257-0.037,0.55-0.113,0.879l-0.697,3.281H311.986z"/>
	<path d="M319.916,226.802c0.631,0,1.088,0.31,1.371,0.928h0.049c0.057-0.505,0.129-0.95,0.221-1.338l0.381-1.748h0.811
		l-1.611,7.598h-0.68l0.107-1.021h-0.039c-0.328,0.407-0.637,0.695-0.922,0.864c-0.287,0.169-0.584,0.254-0.889,0.254
		c-0.453,0-0.807-0.159-1.061-0.479s-0.381-0.762-0.381-1.328c0-0.696,0.117-1.335,0.352-1.914s0.551-1.027,0.949-1.343
		C318.975,226.96,319.42,226.802,319.916,226.802z M318.988,231.66c0.305,0,0.621-0.152,0.947-0.456
		c0.324-0.305,0.582-0.693,0.773-1.168c0.189-0.473,0.285-0.956,0.285-1.447c0-0.361-0.088-0.637-0.264-0.825
		s-0.432-0.283-0.766-0.283c-0.33,0-0.635,0.134-0.916,0.403c-0.281,0.268-0.508,0.646-0.68,1.133
		c-0.17,0.486-0.256,0.998-0.256,1.535C318.113,231.291,318.404,231.66,318.988,231.66z"/>
	<path d="M324.969,232.339c-0.598,0-1.068-0.178-1.41-0.532s-0.514-0.847-0.514-1.475c0-0.612,0.121-1.198,0.363-1.761
		c0.244-0.561,0.564-0.998,0.965-1.311s0.842-0.469,1.324-0.469c0.498,0,0.871,0.108,1.123,0.324
		c0.25,0.217,0.375,0.519,0.375,0.906c0,0.586-0.27,1.046-0.811,1.379c-0.539,0.334-1.312,0.501-2.318,0.501h-0.162l-0.02,0.391
		c0,0.427,0.1,0.759,0.301,0.999c0.199,0.238,0.51,0.358,0.93,0.358c0.205,0,0.416-0.029,0.633-0.088s0.486-0.166,0.809-0.322v0.713
		c-0.307,0.144-0.576,0.243-0.811,0.3C325.512,232.311,325.252,232.339,324.969,232.339z M325.648,227.49
		c-0.336,0-0.65,0.153-0.945,0.459s-0.52,0.73-0.676,1.274h0.059c0.742,0,1.311-0.097,1.705-0.291
		c0.396-0.193,0.594-0.474,0.594-0.842c0-0.173-0.059-0.315-0.178-0.43S325.902,227.49,325.648,227.49z"/>
</g>
</svg>
